{
  "reportName" : "Allure Report",
  "testRuns" : [ ],
  "statistic" : {
    "failed" : 34,
    "broken" : 0,
    "skipped" : 0,
    "passed" : 32,
    "unknown" : 0,
    "total" : 66
  },
  "time" : {
    "start" : 1561747633384,
    "stop" : 1562012330413,
    "duration" : 264697029,
    "minDuration" : 240,
    "maxDuration" : 8032,
    "sumDuration" : 104809
  }
}