{
  "uid" : "4b4757e66a1912dae1a509f688f20b0f",
  "children" : [ {
    "name" : "Product defects",
    "children" : [ {
      "name" : "\n\nINFOS VALIDACAO RESPONSE\n\nSTATUS CODE OK - 200\n\nINFOS COTACAO\n\nERRO - NENHUM GRUPO DE VEICULO DISPONIVEL\n\nVALIDAÇÃO XSD #####################\n\nError: Element '{http://www.opentravel.org/OTA/2003/05}OTA_VehAvailRateRS': No matching global declaration available for the validation root. at data/responseRest.xml:1.\n\n##################################\n\n{\"Type\"=>\"1\", \"Code\"=>\"197\", \"ShortText\"=>\"NENHUM GRUPO DE VEICULO DISPONIVEL\", \"Status\"=>\"NotProcessed\"}",
      "children" : [ {
        "name" : "realizar cotação de veiculo mais barato com 1 dia de reserva com filiais iguais sem hora extra, com equipamentos com proteçao com condutor adicional: artico_american",
        "uid" : "4b3dad494d17e884",
        "parentUid" : "4892774c0e01728bc222db5dfaa8b45e",
        "status" : "failed",
        "time" : {
          "start" : 1557414876115,
          "stop" : 1557414877076,
          "duration" : 961
        },
        "flaky" : false,
        "parameters" : [ ]
      } ],
      "uid" : "4892774c0e01728bc222db5dfaa8b45e"
    } ],
    "uid" : "8fb3a91ba5aaf9de24cc8a92edc82b5d"
  } ],
  "name" : "categories"
}