{
  "d8d4df7ef7d564f16d9d9fca3637128a" : {
    "statistic" : {
      "failed" : 1,
      "broken" : 0,
      "skipped" : 0,
      "passed" : 0,
      "unknown" : 0,
      "total" : 1
    },
    "items" : [ {
      "uid" : "10b8ddd2f2b0ec6f",
      "status" : "failed",
      "statusDetails" : "\n\nINFOS VALIDACAO RESPONSE\n\nSTATUS CODE OK - 200\n\nINFOS COTACAO\n\nERRO - NENHUM GRUPO DE VEICULO DISPONIVEL\n\nVALIDAÇÃO XSD #####################\n\nError: Element '{http://www.opentravel.org/OTA/2003/05}OTA_VehAvailRateRS': No matching global declaration available for the validation root. at data/responseRest.xml:1.\n\n##################################\n\n{\"Type\"=>\"1\", \"Code\"=>\"197\", \"ShortText\"=>\"NENHUM GRUPO DE VEICULO DISPONIVEL\", \"Status\"=>\"NotProcessed\"}",
      "time" : {
        "start" : 1562007231361,
        "stop" : 1562007231776,
        "duration" : 415
      }
    } ]
  },
  "3b21838ba63822967dbe3ad9ed4e9766" : {
    "statistic" : {
      "failed" : 0,
      "broken" : 0,
      "skipped" : 0,
      "passed" : 1,
      "unknown" : 0,
      "total" : 1
    },
    "items" : [ {
      "uid" : "3a9ebe4435134b84",
      "status" : "passed",
      "time" : {
        "start" : 1562007223385,
        "stop" : 1562007225741,
        "duration" : 2356
      }
    } ]
  },
  "59845e72713866d17c3b2275637db8dd" : {
    "statistic" : {
      "failed" : 1,
      "broken" : 0,
      "skipped" : 0,
      "passed" : 0,
      "unknown" : 0,
      "total" : 1
    },
    "items" : [ {
      "uid" : "5728b84e019c8e57",
      "status" : "failed",
      "statusDetails" : "\n\nINFOS VALIDACAO RESPONSE\n\nSTATUS CODE OK - 200\n\nINFOS COTACAO\n\nERRO - NENHUM GRUPO DE VEICULO DISPONIVEL\n\nVALIDAÇÃO XSD #####################\n\nError: Element '{http://www.opentravel.org/OTA/2003/05}OTA_VehAvailRateRS': No matching global declaration available for the validation root. at data/responseRest.xml:1.\n\n##################################\n\n{\"Type\"=>\"1\", \"Code\"=>\"197\", \"ShortText\"=>\"NENHUM GRUPO DE VEICULO DISPONIVEL\", \"Status\"=>\"NotProcessed\"}",
      "time" : {
        "start" : 1562007231778,
        "stop" : 1562007232183,
        "duration" : 405
      }
    } ]
  },
  "1ef380406f965b40be521cde84422cce" : {
    "statistic" : {
      "failed" : 0,
      "broken" : 0,
      "skipped" : 0,
      "passed" : 1,
      "unknown" : 0,
      "total" : 1
    },
    "items" : [ {
      "uid" : "bb5777cb407257c2",
      "status" : "passed",
      "time" : {
        "start" : 1562007282138,
        "stop" : 1562007284443,
        "duration" : 2305
      }
    } ]
  },
  "5e872a673daac8a4dcf18fe5138535e3" : {
    "statistic" : {
      "failed" : 0,
      "broken" : 0,
      "skipped" : 0,
      "passed" : 1,
      "unknown" : 0,
      "total" : 1
    },
    "items" : [ {
      "uid" : "b617f6545d949250",
      "status" : "passed",
      "time" : {
        "start" : 1562007243676,
        "stop" : 1562007245877,
        "duration" : 2201
      }
    } ]
  },
  "f5a14421119215c05755f960e0bcd517" : {
    "statistic" : {
      "failed" : 0,
      "broken" : 0,
      "skipped" : 0,
      "passed" : 1,
      "unknown" : 0,
      "total" : 1
    },
    "items" : [ {
      "uid" : "2fc35b0f789fb8bc",
      "status" : "passed",
      "time" : {
        "start" : 1562007221215,
        "stop" : 1562007223385,
        "duration" : 2170
      }
    } ]
  },
  "d6108104076c2c74761cfc05691d6b4d" : {
    "statistic" : {
      "failed" : 0,
      "broken" : 0,
      "skipped" : 0,
      "passed" : 1,
      "unknown" : 0,
      "total" : 1
    },
    "items" : [ {
      "uid" : "bbcf39178dc24478",
      "status" : "passed",
      "time" : {
        "start" : 1562007234591,
        "stop" : 1562007236757,
        "duration" : 2166
      }
    } ]
  },
  "6aab2451f9f0bab8d1a4cc4173485ccd" : {
    "statistic" : {
      "failed" : 1,
      "broken" : 0,
      "skipped" : 0,
      "passed" : 0,
      "unknown" : 0,
      "total" : 1
    },
    "items" : [ {
      "uid" : "c562c7f635c53c54",
      "status" : "failed",
      "statusDetails" : "\n\nINFOS VALIDACAO RESPONSE\n\nSTATUS CODE OK - 200\n\nINFOS COMMIT\n\nERRO - NENHUM GRUPO DE VEICULO DISPONIVEL\n\nVALIDAÇÃO XSD #####################\n\ntrue\n\nVALIDAÇAO SCHEMA XSD OK !!\n\n##################################\n\n{\"Type\"=>\"1\", \"Code\"=>\"197\", \"ShortText\"=>\"NENHUM GRUPO DE VEICULO DISPONIVEL\", \"Status\"=>\"NotProcessed\"}",
      "time" : {
        "start" : 1562007298464,
        "stop" : 1562007300211,
        "duration" : 1747
      }
    } ]
  },
  "9b8ab50b6a8967357cc21aed91f235cc" : {
    "statistic" : {
      "failed" : 0,
      "broken" : 0,
      "skipped" : 0,
      "passed" : 1,
      "unknown" : 0,
      "total" : 1
    },
    "items" : [ {
      "uid" : "dbf58f2f237ec196",
      "status" : "passed",
      "time" : {
        "start" : 1562007295571,
        "stop" : 1562007297547,
        "duration" : 1976
      }
    } ]
  },
  "a81fe8e7419b281680da23bbf82b3681" : {
    "statistic" : {
      "failed" : 0,
      "broken" : 0,
      "skipped" : 0,
      "passed" : 1,
      "unknown" : 0,
      "total" : 1
    },
    "items" : [ {
      "uid" : "7e69d7af1a5ca8f1",
      "status" : "passed",
      "time" : {
        "start" : 1562007255606,
        "stop" : 1562007257696,
        "duration" : 2090
      }
    } ]
  },
  "3c4c9c9c584b42d8169abe3831d771c9" : {
    "statistic" : {
      "failed" : 1,
      "broken" : 0,
      "skipped" : 0,
      "passed" : 0,
      "unknown" : 0,
      "total" : 1
    },
    "items" : [ {
      "uid" : "e601b9952e06d93d",
      "status" : "failed",
      "statusDetails" : "\n\nINFOS VALIDACAO RESPONSE\n\nSTATUS CODE OK - 200\n\nINFOS COTACAO\n\nERRO - NENHUM GRUPO DE VEICULO DISPONIVEL\n\nVALIDAÇÃO XSD #####################\n\nError: Element '{http://www.opentravel.org/OTA/2003/05}OTA_VehAvailRateRS': No matching global declaration available for the validation root. at data/responseRest.xml:1.\n\n##################################\n\n{\"Type\"=>\"1\", \"Code\"=>\"197\", \"ShortText\"=>\"NENHUM GRUPO DE VEICULO DISPONIVEL\", \"Status\"=>\"NotProcessed\"}",
      "time" : {
        "start" : 1562007267025,
        "stop" : 1562007267434,
        "duration" : 409
      }
    } ]
  },
  "72479e0fc660571b1137049c63466ff9" : {
    "statistic" : {
      "failed" : 0,
      "broken" : 0,
      "skipped" : 0,
      "passed" : 1,
      "unknown" : 0,
      "total" : 1
    },
    "items" : [ {
      "uid" : "ae66d51caa10218f",
      "status" : "passed",
      "time" : {
        "start" : 1562007257697,
        "stop" : 1562007259737,
        "duration" : 2040
      }
    } ]
  },
  "6f243db52885120769946f7468275984" : {
    "statistic" : {
      "failed" : 1,
      "broken" : 0,
      "skipped" : 0,
      "passed" : 0,
      "unknown" : 0,
      "total" : 1
    },
    "items" : [ {
      "uid" : "5af0ec40460a42dd",
      "status" : "failed",
      "statusDetails" : "\n\nINFOS VALIDACAO RESPONSE\n\nSTATUS CODE OK - 200\n\nINFOS COMMIT\n\nERRO - NENHUM GRUPO DE VEICULO DISPONIVEL\n\nVALIDAÇÃO XSD #####################\n\ntrue\n\nVALIDAÇAO SCHEMA XSD OK !!\n\n##################################\n\n{\"Type\"=>\"1\", \"Code\"=>\"197\", \"ShortText\"=>\"NENHUM GRUPO DE VEICULO DISPONIVEL\", \"Status\"=>\"NotProcessed\"}",
      "time" : {
        "start" : 1562007307863,
        "stop" : 1562007310620,
        "duration" : 2757
      }
    } ]
  },
  "93791235fe969098a3fc5c2a240e0257" : {
    "statistic" : {
      "failed" : 1,
      "broken" : 0,
      "skipped" : 0,
      "passed" : 0,
      "unknown" : 0,
      "total" : 1
    },
    "items" : [ {
      "uid" : "f7a54a46c5f457d3",
      "status" : "failed",
      "statusDetails" : "\n\nINFOS VALIDACAO RESPONSE\n\nSTATUS CODE OK - 200\n\nINFOS COTACAO\n\nERRO - NENHUM GRUPO DE VEICULO DISPONIVEL\n\nVALIDAÇÃO XSD #####################\n\nError: Element '{http://www.opentravel.org/OTA/2003/05}OTA_VehAvailRateRS': No matching global declaration available for the validation root. at data/responseRest.xml:1.\n\n##################################\n\n{\"Type\"=>\"1\", \"Code\"=>\"197\", \"ShortText\"=>\"NENHUM GRUPO DE VEICULO DISPONIVEL\", \"Status\"=>\"NotProcessed\"}",
      "time" : {
        "start" : 1562007313566,
        "stop" : 1562007314020,
        "duration" : 454
      }
    } ]
  },
  "f1e4766fa9b518895727e14d5d46a752" : {
    "statistic" : {
      "failed" : 1,
      "broken" : 0,
      "skipped" : 0,
      "passed" : 0,
      "unknown" : 0,
      "total" : 1
    },
    "items" : [ {
      "uid" : "ff26829fc727d631",
      "status" : "failed",
      "statusDetails" : "\n\nINFOS VALIDACAO RESPONSE\n\nSTATUS CODE OK - 200\n\nINFOS COTACAO\n\nERRO - NENHUM GRUPO DE VEICULO DISPONIVEL\n\nVALIDAÇÃO XSD #####################\n\nError: Element '{http://www.opentravel.org/OTA/2003/05}OTA_VehAvailRateRS': No matching global declaration available for the validation root. at data/responseRest.xml:1.\n\n##################################\n\n{\"Type\"=>\"1\", \"Code\"=>\"197\", \"ShortText\"=>\"NENHUM GRUPO DE VEICULO DISPONIVEL\", \"Status\"=>\"NotProcessed\"}",
      "time" : {
        "start" : 1562007298046,
        "stop" : 1562007298462,
        "duration" : 416
      }
    } ]
  },
  "9810d17823c57de532a7b4fcf9b14c7d" : {
    "statistic" : {
      "failed" : 1,
      "broken" : 0,
      "skipped" : 0,
      "passed" : 0,
      "unknown" : 0,
      "total" : 1
    },
    "items" : [ {
      "uid" : "d1ac73260decacf",
      "status" : "failed",
      "statusDetails" : "\n\nINFOS VALIDACAO RESPONSE\n\nSTATUS CODE OK - 200\n\nINFOS COTACAO\n\nERRO - NENHUM GRUPO DE VEICULO DISPONIVEL\n\nVALIDAÇÃO XSD #####################\n\nError: Element '{http://www.opentravel.org/OTA/2003/05}OTA_VehAvailRateRS': No matching global declaration available for the validation root. at data/responseRest.xml:1.\n\n##################################\n\n{\"Type\"=>\"1\", \"Code\"=>\"197\", \"ShortText\"=>\"NENHUM GRUPO DE VEICULO DISPONIVEL\", \"Status\"=>\"NotProcessed\"}",
      "time" : {
        "start" : 1562007250494,
        "stop" : 1562007250900,
        "duration" : 406
      }
    } ]
  },
  "9a96925b31ab72919eee4c9de51a40e3" : {
    "statistic" : {
      "failed" : 1,
      "broken" : 0,
      "skipped" : 0,
      "passed" : 0,
      "unknown" : 0,
      "total" : 1
    },
    "items" : [ {
      "uid" : "e705d08ad6f290a8",
      "status" : "failed",
      "statusDetails" : "\n\nINFOS VALIDACAO RESPONSE\n\nSTATUS CODE OK - 200\n\nINFOS COTACAO\n\nRESPONSE OK\n\nVALIDAÇÃO XSD #####################\n\nError: Element '{http://www.opentravel.org/OTA/2003/05}OTA_VehAvailRateRS': No matching global declaration available for the validation root. at data/responseRest.xml:1.\n\n##################################\n\nVALIDACAO TARIFA OK !!\n\nEquipamento - CADEIRA DE BEBE = true\n\nEquipamento - GPS = false\n\nEquipamento - BOOSTER - ASSENTO P/  CRIANCAS = false\n\nEquipamento - MOVIDA WIFI = false\n\nEquipamento - BEBE CONFORTO = false\n\nVALIDAÇÃO ESTIMATED TOTAL AMOUNT DADOS DE RETORNO\n\nSUCESSO - ESTIMATE TOTAL AMOUNT CALCULADO 198.33\n\nSUCESSO - ESTIMATE TOTAL AMOUNT RESPONSE 198.33\n\nTAXA ADM Calulado: 177.2 / TAXA ADM Retornado: 21.25 \nValor Bruto Calulado: 354.28 / Valor Bruto Response: 198.33 | FALHOU",
      "time" : {
        "start" : 1561747633384,
        "stop" : 1561747641416,
        "duration" : 8032
      }
    } ]
  },
  "e356a24b51a6875ef41447e0387775e3" : {
    "statistic" : {
      "failed" : 0,
      "broken" : 0,
      "skipped" : 0,
      "passed" : 1,
      "unknown" : 0,
      "total" : 1
    },
    "items" : [ {
      "uid" : "4188f4ea237b2e67",
      "status" : "passed",
      "time" : {
        "start" : 1562007267436,
        "stop" : 1562007269607,
        "duration" : 2171
      }
    } ]
  },
  "d85beab63693708cd788b56137469307" : {
    "statistic" : {
      "failed" : 1,
      "broken" : 0,
      "skipped" : 0,
      "passed" : 0,
      "unknown" : 0,
      "total" : 1
    },
    "items" : [ {
      "uid" : "67814ac9856ca614",
      "status" : "failed",
      "statusDetails" : "\n\nINFOS VALIDACAO RESPONSE\n\nSTATUS CODE OK - 200\n\nINFOS COTACAO\n\nERRO - NENHUM GRUPO DE VEICULO DISPONIVEL\n\nVALIDAÇÃO XSD #####################\n\nError: Element '{http://www.opentravel.org/OTA/2003/05}OTA_VehAvailRateRS': No matching global declaration available for the validation root. at data/responseRest.xml:1.\n\n##################################\n\n{\"Type\"=>\"1\", \"Code\"=>\"197\", \"ShortText\"=>\"NENHUM GRUPO DE VEICULO DISPONIVEL\", \"Status\"=>\"NotProcessed\"}",
      "time" : {
        "start" : 1562007284452,
        "stop" : 1562007284853,
        "duration" : 401
      }
    } ]
  },
  "66d7f1d58a801741649f9e4fd88521af" : {
    "statistic" : {
      "failed" : 1,
      "broken" : 0,
      "skipped" : 0,
      "passed" : 0,
      "unknown" : 0,
      "total" : 1
    },
    "items" : [ {
      "uid" : "b2fd8ef363d89265",
      "status" : "failed",
      "statusDetails" : "\n\nINFOS VALIDACAO RESPONSE\n\nSTATUS CODE OK - 200\n\nINFOS COTACAO\n\nERRO - NENHUM GRUPO DE VEICULO DISPONIVEL\n\nVALIDAÇÃO XSD #####################\n\nError: Element '{http://www.opentravel.org/OTA/2003/05}OTA_VehAvailRateRS': No matching global declaration available for the validation root. at data/responseRest.xml:1.\n\n##################################\n\n{\"Type\"=>\"1\", \"Code\"=>\"197\", \"ShortText\"=>\"NENHUM GRUPO DE VEICULO DISPONIVEL\", \"Status\"=>\"NotProcessed\"}",
      "time" : {
        "start" : 1562007317823,
        "stop" : 1562007318234,
        "duration" : 411
      }
    } ]
  },
  "8f988961192fb32856aa3138aa931e76" : {
    "statistic" : {
      "failed" : 0,
      "broken" : 0,
      "skipped" : 0,
      "passed" : 1,
      "unknown" : 0,
      "total" : 1
    },
    "items" : [ {
      "uid" : "188b048b8989f201",
      "status" : "passed",
      "time" : {
        "start" : 1562007253411,
        "stop" : 1562007255604,
        "duration" : 2193
      }
    } ]
  },
  "c4ce30e56d6d8e7dac1b083fc266a4cb" : {
    "statistic" : {
      "failed" : 0,
      "broken" : 0,
      "skipped" : 0,
      "passed" : 1,
      "unknown" : 0,
      "total" : 1
    },
    "items" : [ {
      "uid" : "bafe920d9d7e088e",
      "status" : "passed",
      "time" : {
        "start" : 1562007245879,
        "stop" : 1562007248043,
        "duration" : 2164
      }
    } ]
  },
  "2c5000532273f7d7166a998bbe3977c5" : {
    "statistic" : {
      "failed" : 0,
      "broken" : 0,
      "skipped" : 0,
      "passed" : 1,
      "unknown" : 0,
      "total" : 1
    },
    "items" : [ {
      "uid" : "c02125cb8a9e03b2",
      "status" : "passed",
      "time" : {
        "start" : 1562007241513,
        "stop" : 1562007243674,
        "duration" : 2161
      }
    } ]
  },
  "226487fe2b9d12f5e65dd910a815f470" : {
    "statistic" : {
      "failed" : 1,
      "broken" : 0,
      "skipped" : 0,
      "passed" : 0,
      "unknown" : 0,
      "total" : 1
    },
    "items" : [ {
      "uid" : "d5a64c8d32a5b800",
      "status" : "failed",
      "statusDetails" : "\n\nINFOS VALIDACAO RESPONSE\n\nSTATUS CODE OK - 200\n\nINFOS COTACAO\n\nERRO - NENHUM GRUPO DE VEICULO DISPONIVEL\n\nVALIDAÇÃO XSD #####################\n\nError: Element '{http://www.opentravel.org/OTA/2003/05}OTA_VehAvailRateRS': No matching global declaration available for the validation root. at data/responseRest.xml:1.\n\n##################################\n\n{\"Type\"=>\"1\", \"Code\"=>\"197\", \"ShortText\"=>\"NENHUM GRUPO DE VEICULO DISPONIVEL\", \"Status\"=>\"NotProcessed\"}",
      "time" : {
        "start" : 1562007292577,
        "stop" : 1562007292972,
        "duration" : 395
      }
    } ]
  },
  "94a861008f6a5a5889c2cf43a773d3" : {
    "statistic" : {
      "failed" : 0,
      "broken" : 0,
      "skipped" : 0,
      "passed" : 1,
      "unknown" : 0,
      "total" : 1
    },
    "items" : [ {
      "uid" : "5be649a48ab9a6b0",
      "status" : "passed",
      "time" : {
        "start" : 1562007264913,
        "stop" : 1562007267016,
        "duration" : 2103
      }
    } ]
  },
  "13f06ca405b571d0519543cfe5ed42df" : {
    "statistic" : {
      "failed" : 1,
      "broken" : 0,
      "skipped" : 0,
      "passed" : 0,
      "unknown" : 0,
      "total" : 1
    },
    "items" : [ {
      "uid" : "e550a5b7eb62e2ef",
      "status" : "failed",
      "statusDetails" : "\n\nINFOS VALIDACAO RESPONSE\n\nSTATUS CODE OK - 200\n\nINFOS COTACAO\n\nERRO - NENHUM GRUPO DE VEICULO DISPONIVEL\n\nVALIDAÇÃO XSD #####################\n\nError: Element '{http://www.opentravel.org/OTA/2003/05}OTA_VehAvailRateRS': No matching global declaration available for the validation root. at data/responseRest.xml:1.\n\n##################################\n\n{\"Type\"=>\"1\", \"Code\"=>\"197\", \"ShortText\"=>\"NENHUM GRUPO DE VEICULO DISPONIVEL\", \"Status\"=>\"NotProcessed\"}",
      "time" : {
        "start" : 1562007297558,
        "stop" : 1562007298045,
        "duration" : 487
      }
    } ]
  },
  "447f78003d55a1de8135f3d29a4c26b8" : {
    "statistic" : {
      "failed" : 0,
      "broken" : 0,
      "skipped" : 0,
      "passed" : 1,
      "unknown" : 0,
      "total" : 1
    },
    "items" : [ {
      "uid" : "6beeb98859213719",
      "status" : "passed",
      "time" : {
        "start" : 1562007236758,
        "stop" : 1562007238989,
        "duration" : 2231
      }
    } ]
  },
  "9aec28b251392fc8bfc9535b9d2947dd" : {
    "statistic" : {
      "failed" : 0,
      "broken" : 0,
      "skipped" : 0,
      "passed" : 1,
      "unknown" : 0,
      "total" : 1
    },
    "items" : [ {
      "uid" : "135e6bb28b901550",
      "status" : "passed",
      "time" : {
        "start" : 1562007260168,
        "stop" : 1562007262275,
        "duration" : 2107
      }
    } ]
  },
  "2d057417e75aad144684a0d01d80bbe3" : {
    "statistic" : {
      "failed" : 1,
      "broken" : 0,
      "skipped" : 0,
      "passed" : 0,
      "unknown" : 0,
      "total" : 1
    },
    "items" : [ {
      "uid" : "1eaf8a1eae3abdb0",
      "status" : "failed",
      "statusDetails" : "\n\nINFOS VALIDACAO RESPONSE\n\nSTATUS CODE OK - 200\n\nINFOS COTACAO\n\nERRO - NENHUM GRUPO DE VEICULO DISPONIVEL\n\nVALIDAÇÃO XSD #####################\n\nError: Element '{http://www.opentravel.org/OTA/2003/05}OTA_VehAvailRateRS': No matching global declaration available for the validation root. at data/responseRest.xml:1.\n\n##################################\n\n{\"Type\"=>\"1\", \"Code\"=>\"197\", \"ShortText\"=>\"NENHUM GRUPO DE VEICULO DISPONIVEL\", \"Status\"=>\"NotProcessed\"}",
      "time" : {
        "start" : 1562007317411,
        "stop" : 1562007317820,
        "duration" : 409
      }
    } ]
  },
  "d0f503266f2c17606bdd937278f6e52f" : {
    "statistic" : {
      "failed" : 1,
      "broken" : 0,
      "skipped" : 0,
      "passed" : 0,
      "unknown" : 0,
      "total" : 1
    },
    "items" : [ {
      "uid" : "a9bb7d0fd79e6d65",
      "status" : "failed",
      "statusDetails" : "\n\nINFOS VALIDACAO RESPONSE\n\nSTATUS CODE OK - 200\n\nINFOS COTACAO\n\nERRO - NENHUM GRUPO DE VEICULO DISPONIVEL\n\nVALIDAÇÃO XSD #####################\n\nError: Element '{http://www.opentravel.org/OTA/2003/05}OTA_VehAvailRateRS': No matching global declaration available for the validation root. at data/responseRest.xml:1.\n\n##################################\n\n{\"Type\"=>\"1\", \"Code\"=>\"197\", \"ShortText\"=>\"NENHUM GRUPO DE VEICULO DISPONIVEL\", \"Status\"=>\"NotProcessed\"}",
      "time" : {
        "start" : 1562007314022,
        "stop" : 1562007314469,
        "duration" : 447
      }
    } ]
  },
  "78d1d91c20690acb46bba6a5ff87f65" : {
    "statistic" : {
      "failed" : 1,
      "broken" : 0,
      "skipped" : 0,
      "passed" : 0,
      "unknown" : 0,
      "total" : 1
    },
    "items" : [ {
      "uid" : "62813a8c05cd113b",
      "status" : "failed",
      "statusDetails" : "\n\nINFOS VALIDACAO RESPONSE\n\nSTATUS CODE OK - 200\n\nINFOS COTACAO\n\nERRO - NENHUMA TARIFA V?LIDA FOI ENCONTRADA!\n\nVALIDAÇÃO XSD #####################\n\nError: Element '{http://www.opentravel.org/OTA/2003/05}OTA_VehAvailRateRS': No matching global declaration available for the validation root. at data/responseRest.xml:1.\n\n##################################\n\n{\"Type\"=>\"1\", \"Code\"=>\"197\", \"ShortText\"=>\"NENHUMA TARIFA V?LIDA FOI ENCONTRADA!\", \"Status\"=>\"NotProcessed\"}",
      "time" : {
        "start" : 1562007313280,
        "stop" : 1562007313556,
        "duration" : 276
      }
    } ]
  },
  "a2bd0266b3d54a70e589c9b40315e216" : {
    "statistic" : {
      "failed" : 1,
      "broken" : 0,
      "skipped" : 0,
      "passed" : 0,
      "unknown" : 0,
      "total" : 1
    },
    "items" : [ {
      "uid" : "638b9a67b0a8e4e",
      "status" : "failed",
      "statusDetails" : "\n\nINFOS VALIDACAO RESPONSE\n\nSTATUS CODE OK - 200\n\nINFOS COTACAO\n\nERRO - NENHUMA TARIFA V?LIDA FOI ENCONTRADA!\n\nVALIDAÇÃO XSD #####################\n\nError: Element '{http://www.opentravel.org/OTA/2003/05}OTA_VehAvailRateRS': No matching global declaration available for the validation root. at data/responseRest.xml:1.\n\n##################################\n\n{\"Type\"=>\"1\", \"Code\"=>\"197\", \"ShortText\"=>\"NENHUMA TARIFA V?LIDA FOI ENCONTRADA!\", \"Status\"=>\"NotProcessed\"}",
      "time" : {
        "start" : 1562007273995,
        "stop" : 1562007274243,
        "duration" : 248
      }
    } ]
  },
  "42d73a26ad8bce4c9e67b35d9ab75d6a" : {
    "statistic" : {
      "failed" : 0,
      "broken" : 0,
      "skipped" : 0,
      "passed" : 1,
      "unknown" : 0,
      "total" : 1
    },
    "items" : [ {
      "uid" : "f72db6a9dccfd2e8",
      "status" : "passed",
      "time" : {
        "start" : 1562007229417,
        "stop" : 1562007231359,
        "duration" : 1942
      }
    } ]
  },
  "fc8ba83c757f4fdc7786fcbb1b0e5022" : {
    "statistic" : {
      "failed" : 1,
      "broken" : 0,
      "skipped" : 0,
      "passed" : 0,
      "unknown" : 0,
      "total" : 1
    },
    "items" : [ {
      "uid" : "63eeb2e7801a311d",
      "status" : "failed",
      "statusDetails" : "\n\nINFOS VALIDACAO RESPONSE\n\nSTATUS CODE OK - 200\n\nINFOS COTACAO\n\nERRO - NENHUM GRUPO DE VEICULO DISPONIVEL\n\nVALIDAÇÃO XSD #####################\n\nError: Element '{http://www.opentravel.org/OTA/2003/05}OTA_VehAvailRateRS': No matching global declaration available for the validation root. at data/responseRest.xml:1.\n\n##################################\n\n{\"Type\"=>\"1\", \"Code\"=>\"197\", \"ShortText\"=>\"NENHUM GRUPO DE VEICULO DISPONIVEL\", \"Status\"=>\"NotProcessed\"}",
      "time" : {
        "start" : 1562007292147,
        "stop" : 1562007292575,
        "duration" : 428
      }
    } ]
  },
  "910aad04b931bacc3a03c5a6510a35d6" : {
    "statistic" : {
      "failed" : 1,
      "broken" : 0,
      "skipped" : 0,
      "passed" : 0,
      "unknown" : 0,
      "total" : 1
    },
    "items" : [ {
      "uid" : "9d19947fed8ca6a4",
      "status" : "failed",
      "statusDetails" : "\n\nINFOS VALIDACAO RESPONSE\n\nSTATUS CODE OK - 200\n\nINFOS COTACAO\n\nERRO - NENHUM GRUPO DE VEICULO DISPONIVEL\n\nVALIDAÇÃO XSD #####################\n\nError: Element '{http://www.opentravel.org/OTA/2003/05}OTA_VehAvailRateRS': No matching global declaration available for the validation root. at data/responseRest.xml:1.\n\n##################################\n\n{\"Type\"=>\"1\", \"Code\"=>\"197\", \"ShortText\"=>\"NENHUM GRUPO DE VEICULO DISPONIVEL\", \"Status\"=>\"NotProcessed\"}",
      "time" : {
        "start" : 1562007314472,
        "stop" : 1562007314868,
        "duration" : 396
      }
    } ]
  },
  "145fe4d975d05cc20be97509cc0f0db7" : {
    "statistic" : {
      "failed" : 1,
      "broken" : 0,
      "skipped" : 0,
      "passed" : 0,
      "unknown" : 0,
      "total" : 1
    },
    "items" : [ {
      "uid" : "d29034b2e752f55d",
      "status" : "failed",
      "statusDetails" : "\n\nINFOS VALIDACAO RESPONSE\n\nSTATUS CODE OK - 200\n\nINFOS COTACAO\n\nERRO - NENHUM GRUPO DE VEICULO DISPONIVEL\n\nVALIDAÇÃO XSD #####################\n\nError: Element '{http://www.opentravel.org/OTA/2003/05}OTA_VehAvailRateRS': No matching global declaration available for the validation root. at data/responseRest.xml:1.\n\n##################################\n\n{\"Type\"=>\"1\", \"Code\"=>\"197\", \"ShortText\"=>\"NENHUM GRUPO DE VEICULO DISPONIVEL\", \"Status\"=>\"NotProcessed\"}",
      "time" : {
        "start" : 1562007325001,
        "stop" : 1562007325650,
        "duration" : 649
      }
    } ]
  },
  "787af462436f166b5539af4addff66cd" : {
    "statistic" : {
      "failed" : 1,
      "broken" : 0,
      "skipped" : 0,
      "passed" : 0,
      "unknown" : 0,
      "total" : 1
    },
    "items" : [ {
      "uid" : "34cfaf94a6cdcd54",
      "status" : "failed",
      "statusDetails" : "\n\nINFOS VALIDACAO RESPONSE\n\nSTATUS CODE OK - 200\n\nINFOS COTACAO\n\nERRO - NENHUM GRUPO DE VEICULO DISPONIVEL\n\nVALIDAÇÃO XSD #####################\n\nError: Element '{http://www.opentravel.org/OTA/2003/05}OTA_VehAvailRateRS': No matching global declaration available for the validation root. at data/responseRest.xml:1.\n\n##################################\n\n{\"Type\"=>\"1\", \"Code\"=>\"197\", \"ShortText\"=>\"NENHUM GRUPO DE VEICULO DISPONIVEL\", \"Status\"=>\"NotProcessed\"}",
      "time" : {
        "start" : 1562007291756,
        "stop" : 1562007292146,
        "duration" : 390
      }
    } ]
  },
  "a539f641e4a546934ac19cc6115b00fb" : {
    "statistic" : {
      "failed" : 1,
      "broken" : 0,
      "skipped" : 0,
      "passed" : 0,
      "unknown" : 0,
      "total" : 1
    },
    "items" : [ {
      "uid" : "372f310764e8064",
      "status" : "failed",
      "statusDetails" : "\n\nINFOS VALIDACAO RESPONSE\n\nSTATUS CODE OK - 200\n\nINFOS COTACAO\n\nERRO - NENHUM GRUPO DE VEICULO DISPONIVEL\n\nVALIDAÇÃO XSD #####################\n\nError: Element '{http://www.opentravel.org/OTA/2003/05}OTA_VehAvailRateRS': No matching global declaration available for the validation root. at data/responseRest.xml:1.\n\n##################################\n\n{\"Type\"=>\"1\", \"Code\"=>\"197\", \"ShortText\"=>\"NENHUM GRUPO DE VEICULO DISPONIVEL\", \"Status\"=>\"NotProcessed\"}",
      "time" : {
        "start" : 1562007291319,
        "stop" : 1562007291754,
        "duration" : 435
      }
    } ]
  },
  "e38a6d42fd93266cec3fdf3e7da9e015" : {
    "statistic" : {
      "failed" : 0,
      "broken" : 0,
      "skipped" : 0,
      "passed" : 1,
      "unknown" : 0,
      "total" : 1
    },
    "items" : [ {
      "uid" : "9547cd75e4359b7d",
      "status" : "passed",
      "time" : {
        "start" : 1562007262276,
        "stop" : 1562007264911,
        "duration" : 2635
      }
    } ]
  },
  "470d5a06be962f5cbb9f71181437f2b6" : {
    "statistic" : {
      "failed" : 0,
      "broken" : 0,
      "skipped" : 0,
      "passed" : 1,
      "unknown" : 0,
      "total" : 1
    },
    "items" : [ {
      "uid" : "25434de4ab3ce786",
      "status" : "passed",
      "time" : {
        "start" : 1562007304572,
        "stop" : 1562007307861,
        "duration" : 3289
      }
    } ]
  },
  "c9ac6c28db385abc84964425387b1381" : {
    "statistic" : {
      "failed" : 1,
      "broken" : 0,
      "skipped" : 0,
      "passed" : 0,
      "unknown" : 0,
      "total" : 1
    },
    "items" : [ {
      "uid" : "b6f59528e1fc386a",
      "status" : "failed",
      "statusDetails" : "\n\nINFOS VALIDACAO RESPONSE\n\nSTATUS CODE OK - 200\n\nINFOS COTACAO\n\nERRO - NENHUMA TARIFA V?LIDA FOI ENCONTRADA!\n\nVALIDAÇÃO XSD #####################\n\nError: Element '{http://www.opentravel.org/OTA/2003/05}OTA_VehAvailRateRS': No matching global declaration available for the validation root. at data/responseRest.xml:1.\n\n##################################\n\n{\"Type\"=>\"1\", \"Code\"=>\"197\", \"ShortText\"=>\"NENHUMA TARIFA V?LIDA FOI ENCONTRADA!\", \"Status\"=>\"NotProcessed\"}",
      "time" : {
        "start" : 1562007250252,
        "stop" : 1562007250492,
        "duration" : 240
      }
    } ]
  },
  "5ea140759fb1c8670d1bab7286fa030a" : {
    "statistic" : {
      "failed" : 0,
      "broken" : 0,
      "skipped" : 0,
      "passed" : 1,
      "unknown" : 0,
      "total" : 1
    },
    "items" : [ {
      "uid" : "c42c4c016383fd5f",
      "status" : "passed",
      "time" : {
        "start" : 1562007315267,
        "stop" : 1562007317406,
        "duration" : 2139
      }
    } ]
  },
  "a689fdb7ee95000e3706fc5a1a2af128" : {
    "statistic" : {
      "failed" : 0,
      "broken" : 0,
      "skipped" : 0,
      "passed" : 1,
      "unknown" : 0,
      "total" : 1
    },
    "items" : [ {
      "uid" : "1e85bae159c939b6",
      "status" : "passed",
      "time" : {
        "start" : 1562007248046,
        "stop" : 1562007250251,
        "duration" : 2205
      }
    } ]
  },
  "d51c7884ed670dd3748ebe488bc19988" : {
    "statistic" : {
      "failed" : 0,
      "broken" : 0,
      "skipped" : 0,
      "passed" : 1,
      "unknown" : 0,
      "total" : 1
    },
    "items" : [ {
      "uid" : "51c2cc2084d11344",
      "status" : "passed",
      "time" : {
        "start" : 1562007293415,
        "stop" : 1562007295569,
        "duration" : 2154
      }
    } ]
  },
  "64a6f6e40af9711573351fa0db8f5fb2" : {
    "statistic" : {
      "failed" : 1,
      "broken" : 0,
      "skipped" : 0,
      "passed" : 0,
      "unknown" : 0,
      "total" : 1
    },
    "items" : [ {
      "uid" : "e5a810e2bc1463a4",
      "status" : "failed",
      "statusDetails" : "\n\nINFOS VALIDACAO RESPONSE\n\nSTATUS CODE OK - 200\n\nINFOS COTACAO\n\nERRO - NENHUM GRUPO DE VEICULO DISPONIVEL\n\nVALIDAÇÃO XSD #####################\n\nError: Element '{http://www.opentravel.org/OTA/2003/05}OTA_VehAvailRateRS': No matching global declaration available for the validation root. at data/responseRest.xml:1.\n\n##################################\n\n{\"Type\"=>\"1\", \"Code\"=>\"197\", \"ShortText\"=>\"NENHUM GRUPO DE VEICULO DISPONIVEL\", \"Status\"=>\"NotProcessed\"}",
      "time" : {
        "start" : 1562007289229,
        "stop" : 1562007289647,
        "duration" : 418
      }
    } ]
  },
  "126f3e061cf72b3be8bb7cc6fd42b14b" : {
    "statistic" : {
      "failed" : 1,
      "broken" : 0,
      "skipped" : 0,
      "passed" : 0,
      "unknown" : 0,
      "total" : 1
    },
    "items" : [ {
      "uid" : "de322fb01d77af93",
      "status" : "failed",
      "statusDetails" : "\n\nINFOS VALIDACAO RESPONSE\n\nSTATUS CODE OK - 200\n\nINFOS COMMIT\n\nERRO - NENHUM GRUPO DE VEICULO DISPONIVEL\n\nVALIDAÇÃO XSD #####################\n\ntrue\n\nVALIDAÇAO SCHEMA XSD OK !!\n\n##################################\n\n{\"Type\"=>\"1\", \"Code\"=>\"197\", \"ShortText\"=>\"NENHUM GRUPO DE VEICULO DISPONIVEL\", \"Status\"=>\"NotProcessed\"}",
      "time" : {
        "start" : 1562007289649,
        "stop" : 1562007291317,
        "duration" : 1668
      }
    } ]
  },
  "fd01923a45c87a208bcf2ce30aea0c21" : {
    "statistic" : {
      "failed" : 1,
      "broken" : 0,
      "skipped" : 0,
      "passed" : 0,
      "unknown" : 0,
      "total" : 1
    },
    "items" : [ {
      "uid" : "c6faaf6b57aab38f",
      "status" : "failed",
      "statusDetails" : "\n\nINFOS VALIDACAO RESPONSE\n\nSTATUS CODE OK - 200\n\nINFOS COTACAO\n\nERRO - NENHUM GRUPO DE VEICULO DISPONIVEL\n\nVALIDAÇÃO XSD #####################\n\nError: Element '{http://www.opentravel.org/OTA/2003/05}OTA_VehAvailRateRS': No matching global declaration available for the validation root. at data/responseRest.xml:1.\n\n##################################\n\n{\"Type\"=>\"1\", \"Code\"=>\"197\", \"ShortText\"=>\"NENHUM GRUPO DE VEICULO DISPONIVEL\", \"Status\"=>\"NotProcessed\"}",
      "time" : {
        "start" : 1562007310623,
        "stop" : 1562007311068,
        "duration" : 445
      }
    } ]
  },
  "b377c8e676468124cddb3712adb41906" : {
    "statistic" : {
      "failed" : 1,
      "broken" : 0,
      "skipped" : 0,
      "passed" : 0,
      "unknown" : 0,
      "total" : 1
    },
    "items" : [ {
      "uid" : "89e0be0bcf2a4bb4",
      "status" : "failed",
      "statusDetails" : "\n\nINFOS VALIDACAO RESPONSE\n\nSTATUS CODE OK - 200\n\nINFOS COMMIT\n\nERRO - NENHUM GRUPO DE VEICULO DISPONIVEL\n\nVALIDAÇÃO XSD #####################\n\ntrue\n\nVALIDAÇAO SCHEMA XSD OK !!\n\n##################################\n\n{\"Type\"=>\"1\", \"Code\"=>\"197\", \"ShortText\"=>\"NENHUM GRUPO DE VEICULO DISPONIVEL\", \"Status\"=>\"NotProcessed\"}",
      "time" : {
        "start" : 1562007300213,
        "stop" : 1562007301974,
        "duration" : 1761
      }
    } ]
  },
  "e20ca1a8620143786c71e620a9d1b5ae" : {
    "statistic" : {
      "failed" : 0,
      "broken" : 0,
      "skipped" : 0,
      "passed" : 1,
      "unknown" : 0,
      "total" : 1
    },
    "items" : [ {
      "uid" : "ad1cdbf13c18be0a",
      "status" : "passed",
      "time" : {
        "start" : 1562007274245,
        "stop" : 1562007277415,
        "duration" : 3170
      }
    } ]
  },
  "d8117e9bf104cd4cac35a7366a960a8" : {
    "statistic" : {
      "failed" : 0,
      "broken" : 0,
      "skipped" : 0,
      "passed" : 1,
      "unknown" : 0,
      "total" : 1
    },
    "items" : [ {
      "uid" : "8caf3e8ef1b0b07e",
      "status" : "passed",
      "time" : {
        "start" : 1562007302430,
        "stop" : 1562007304570,
        "duration" : 2140
      }
    } ]
  },
  "f119527e3cf0abb49a5f8ea89bf087ec" : {
    "statistic" : {
      "failed" : 0,
      "broken" : 0,
      "skipped" : 0,
      "passed" : 1,
      "unknown" : 0,
      "total" : 1
    },
    "items" : [ {
      "uid" : "6877f376657731d1",
      "status" : "passed",
      "time" : {
        "start" : 1562007269609,
        "stop" : 1562007271860,
        "duration" : 2251
      }
    } ]
  },
  "32069c5f26c41c55706c8fcbd3a1ad7c" : {
    "statistic" : {
      "failed" : 1,
      "broken" : 0,
      "skipped" : 0,
      "passed" : 0,
      "unknown" : 0,
      "total" : 1
    },
    "items" : [ {
      "uid" : "d33d8c4f6995ea7e",
      "status" : "failed",
      "statusDetails" : "\n\nINFOS VALIDACAO RESPONSE\n\nSTATUS CODE OK - 200\n\nINFOS COTACAO\n\nERRO - NENHUM GRUPO DE VEICULO DISPONIVEL\n\nVALIDAÇÃO XSD #####################\n\nError: Element '{http://www.opentravel.org/OTA/2003/05}OTA_VehAvailRateRS': No matching global declaration available for the validation root. at data/responseRest.xml:1.\n\n##################################\n\n{\"Type\"=>\"1\", \"Code\"=>\"197\", \"ShortText\"=>\"NENHUM GRUPO DE VEICULO DISPONIVEL\", \"Status\"=>\"NotProcessed\"}",
      "time" : {
        "start" : 1562007292974,
        "stop" : 1562007293411,
        "duration" : 437
      }
    } ]
  },
  "d4047800b13c00e7f4e284719b2a7199" : {
    "statistic" : {
      "failed" : 0,
      "broken" : 0,
      "skipped" : 0,
      "passed" : 1,
      "unknown" : 0,
      "total" : 1
    },
    "items" : [ {
      "uid" : "74e89f92cdfc9ffe",
      "status" : "passed",
      "time" : {
        "start" : 1562007227201,
        "stop" : 1562007229414,
        "duration" : 2213
      }
    } ]
  },
  "790ca5f7fb299200dd870118f779ccdc" : {
    "statistic" : {
      "failed" : 1,
      "broken" : 0,
      "skipped" : 0,
      "passed" : 0,
      "unknown" : 0,
      "total" : 1
    },
    "items" : [ {
      "uid" : "243bdc79c1107042",
      "status" : "failed",
      "statusDetails" : "\n\nINFOS VALIDACAO RESPONSE\n\nSTATUS CODE OK - 200\n\nINFOS COMMIT\n\nERRO - NENHUM GRUPO DE VEICULO DISPONIVEL\n\nVALIDAÇÃO XSD #####################\n\ntrue\n\nVALIDAÇAO SCHEMA XSD OK !!\n\n##################################\n\n{\"Type\"=>\"1\", \"Code\"=>\"197\", \"ShortText\"=>\"NENHUM GRUPO DE VEICULO DISPONIVEL\", \"Status\"=>\"NotProcessed\"}",
      "time" : {
        "start" : 1562007285243,
        "stop" : 1562007287056,
        "duration" : 1813
      }
    } ]
  },
  "ad5f58bb0f96f1133a39099c71817cbc" : {
    "statistic" : {
      "failed" : 0,
      "broken" : 0,
      "skipped" : 0,
      "passed" : 1,
      "unknown" : 0,
      "total" : 1
    },
    "items" : [ {
      "uid" : "6301fc4c74afc97c",
      "status" : "passed",
      "time" : {
        "start" : 1562007238990,
        "stop" : 1562007241511,
        "duration" : 2521
      }
    } ]
  },
  "f74bafda83360725c4cb8dbe6c428353" : {
    "statistic" : {
      "failed" : 1,
      "broken" : 0,
      "skipped" : 0,
      "passed" : 0,
      "unknown" : 0,
      "total" : 1
    },
    "items" : [ {
      "uid" : "988dacc3e978383c",
      "status" : "failed",
      "statusDetails" : "\n\nINFOS VALIDACAO RESPONSE\n\nSTATUS CODE OK - 200\n\nINFOS COTACAO\n\nERRO - NENHUM GRUPO DE VEICULO DISPONIVEL\n\nVALIDAÇÃO XSD #####################\n\nError: Element '{http://www.opentravel.org/OTA/2003/05}OTA_VehAvailRateRS': No matching global declaration available for the validation root. at data/responseRest.xml:1.\n\n##################################\n\n{\"Type\"=>\"1\", \"Code\"=>\"197\", \"ShortText\"=>\"NENHUM GRUPO DE VEICULO DISPONIVEL\", \"Status\"=>\"NotProcessed\"}",
      "time" : {
        "start" : 1562007301976,
        "stop" : 1562007302426,
        "duration" : 450
      }
    } ]
  },
  "cf5b3176133116993491259a0124f8a7" : {
    "statistic" : {
      "failed" : 0,
      "broken" : 0,
      "skipped" : 0,
      "passed" : 1,
      "unknown" : 0,
      "total" : 1
    },
    "items" : [ {
      "uid" : "af020ead6dc70f77",
      "status" : "passed",
      "time" : {
        "start" : 1562007271862,
        "stop" : 1562007273988,
        "duration" : 2126
      }
    } ]
  },
  "b83f59a23d6de5dd496483573db8c250" : {
    "statistic" : {
      "failed" : 0,
      "broken" : 0,
      "skipped" : 0,
      "passed" : 1,
      "unknown" : 0,
      "total" : 1
    },
    "items" : [ {
      "uid" : "d0bef3c268083d7c",
      "status" : "passed",
      "time" : {
        "start" : 1562007277850,
        "stop" : 1562007280003,
        "duration" : 2153
      }
    } ]
  },
  "5973b8abf9bc66472fcdbf3459d4e0c1" : {
    "statistic" : {
      "failed" : 0,
      "broken" : 0,
      "skipped" : 0,
      "passed" : 1,
      "unknown" : 0,
      "total" : 1
    },
    "items" : [ {
      "uid" : "8ddded590868d04e",
      "status" : "passed",
      "time" : {
        "start" : 1562007311070,
        "stop" : 1562007313279,
        "duration" : 2209
      }
    } ]
  },
  "2f86a69b193a2f6665914481f8317b02" : {
    "statistic" : {
      "failed" : 1,
      "broken" : 0,
      "skipped" : 0,
      "passed" : 0,
      "unknown" : 0,
      "total" : 1
    },
    "items" : [ {
      "uid" : "1284bfdc75598931",
      "status" : "failed",
      "statusDetails" : "\n\nINFOS VALIDACAO RESPONSE\n\nSTATUS CODE OK - 200\n\nINFOS COTACAO\n\nERRO - NENHUM GRUPO DE VEICULO DISPONIVEL\n\nVALIDAÇÃO XSD #####################\n\nError: Element '{http://www.opentravel.org/OTA/2003/05}OTA_VehAvailRateRS': No matching global declaration available for the validation root. at data/responseRest.xml:1.\n\n##################################\n\n{\"Type\"=>\"1\", \"Code\"=>\"197\", \"ShortText\"=>\"NENHUM GRUPO DE VEICULO DISPONIVEL\", \"Status\"=>\"NotProcessed\"}",
      "time" : {
        "start" : 1562007277426,
        "stop" : 1562007277849,
        "duration" : 423
      }
    } ]
  },
  "88ba5bcdf43a9e33676c8c0398b7e58" : {
    "statistic" : {
      "failed" : 1,
      "broken" : 0,
      "skipped" : 0,
      "passed" : 0,
      "unknown" : 0,
      "total" : 1
    },
    "items" : [ {
      "uid" : "b39ff02defb0e367",
      "status" : "failed",
      "statusDetails" : "\n\nINFOS VALIDACAO RESPONSE\n\nSTATUS CODE OK - 200\n\nINFOS COTACAO\n\nERRO - NENHUM GRUPO DE VEICULO DISPONIVEL\n\nVALIDAÇÃO XSD #####################\n\nError: Element '{http://www.opentravel.org/OTA/2003/05}OTA_VehAvailRateRS': No matching global declaration available for the validation root. at data/responseRest.xml:1.\n\n##################################\n\n{\"Type\"=>\"1\", \"Code\"=>\"197\", \"ShortText\"=>\"NENHUM GRUPO DE VEICULO DISPONIVEL\", \"Status\"=>\"NotProcessed\"}",
      "time" : {
        "start" : 1562007284854,
        "stop" : 1562007285241,
        "duration" : 387
      }
    } ]
  },
  "d804f631d2c504fc7d18a20a2c413da9" : {
    "statistic" : {
      "failed" : 0,
      "broken" : 0,
      "skipped" : 0,
      "passed" : 1,
      "unknown" : 0,
      "total" : 1
    },
    "items" : [ {
      "uid" : "e9e588cbbe7faca1",
      "status" : "passed",
      "time" : {
        "start" : 1562007250901,
        "stop" : 1562007253410,
        "duration" : 2509
      }
    } ]
  },
  "8fa4e4b8641512b133825838633a540f" : {
    "statistic" : {
      "failed" : 0,
      "broken" : 0,
      "skipped" : 0,
      "passed" : 1,
      "unknown" : 0,
      "total" : 1
    },
    "items" : [ {
      "uid" : "ed339891b5ff670a",
      "status" : "passed",
      "time" : {
        "start" : 1562007232185,
        "stop" : 1562007234590,
        "duration" : 2405
      }
    } ]
  },
  "6bff0be757b1cfddfa7d2a4d3576a312" : {
    "statistic" : {
      "failed" : 1,
      "broken" : 0,
      "skipped" : 0,
      "passed" : 0,
      "unknown" : 0,
      "total" : 1
    },
    "items" : [ {
      "uid" : "36a5415ca013867e",
      "status" : "failed",
      "statusDetails" : "\n\nINFOS VALIDACAO RESPONSE\n\nSTATUS CODE OK - 200\n\nINFOS COTACAO\n\nERRO - NENHUM GRUPO DE VEICULO DISPONIVEL\n\nVALIDAÇÃO XSD #####################\n\nError: Element '{http://www.opentravel.org/OTA/2003/05}OTA_VehAvailRateRS': No matching global declaration available for the validation root. at data/responseRest.xml:1.\n\n##################################\n\n{\"Type\"=>\"1\", \"Code\"=>\"197\", \"ShortText\"=>\"NENHUM GRUPO DE VEICULO DISPONIVEL\", \"Status\"=>\"NotProcessed\"}",
      "time" : {
        "start" : 1562012327152,
        "stop" : 1562012330413,
        "duration" : 3261
      }
    } ]
  },
  "a1b6cc7f5265b745f45f0308bc50c01e" : {
    "statistic" : {
      "failed" : 0,
      "broken" : 0,
      "skipped" : 0,
      "passed" : 1,
      "unknown" : 0,
      "total" : 1
    },
    "items" : [ {
      "uid" : "8b33cd7e74f7a2d1",
      "status" : "passed",
      "time" : {
        "start" : 1562007287058,
        "stop" : 1562007289227,
        "duration" : 2169
      }
    } ]
  },
  "520de9ea8f099118005bbe021052b835" : {
    "statistic" : {
      "failed" : 1,
      "broken" : 0,
      "skipped" : 0,
      "passed" : 0,
      "unknown" : 0,
      "total" : 1
    },
    "items" : [ {
      "uid" : "795209127f49b60c",
      "status" : "failed",
      "statusDetails" : "\n\nINFOS VALIDACAO RESPONSE\n\nSTATUS CODE OK - 200\n\nINFOS COTACAO\n\nERRO - NENHUM GRUPO DE VEICULO DISPONIVEL\n\nVALIDAÇÃO XSD #####################\n\nError: Element '{http://www.opentravel.org/OTA/2003/05}OTA_VehAvailRateRS': No matching global declaration available for the validation root. at data/responseRest.xml:1.\n\n##################################\n\n{\"Type\"=>\"1\", \"Code\"=>\"197\", \"ShortText\"=>\"NENHUM GRUPO DE VEICULO DISPONIVEL\", \"Status\"=>\"NotProcessed\"}",
      "time" : {
        "start" : 1562007259738,
        "stop" : 1562007260167,
        "duration" : 429
      }
    } ]
  }
}