[ {
  "uid" : "f7a54a46c5f457d3",
  "name" : "realizar cotação de veiculo mais caro com 1 dia de reserva com filiais iguais sem hora extra, com equipamentos com proteçao se       m condutor adicionalsem condutor adicional: latam",
  "time" : {
    "start" : 1562007313566,
    "stop" : 1562007314020,
    "duration" : 454
  },
  "status" : "failed",
  "severity" : "normal"
}, {
  "uid" : "bb5777cb407257c2",
  "name" : "realizar cotação de veiculo mais barato com 1 dia de reserva com filiais iguais sem hora extra, sem equipamentos sem proteçao sem condutor adicionalsem condutor adicional: latam",
  "time" : {
    "start" : 1562007282138,
    "stop" : 1562007284443,
    "duration" : 2305
  },
  "status" : "passed",
  "severity" : "normal"
}, {
  "uid" : "34cfaf94a6cdcd54",
  "name" : "realizar reserva de veiculo mais caro com 30 dias de reserva com filiais diferentes com hora extra com equipamentos com proteçao com condutor adicional: latam",
  "time" : {
    "start" : 1562007291756,
    "stop" : 1562007292146,
    "duration" : 390
  },
  "status" : "failed",
  "severity" : "normal"
}, {
  "uid" : "63eeb2e7801a311d",
  "name" : "realizar cotação de veiculo mais caro com 1 dia de reserva com filiais iguais sem hora extra, sem equipamentos com proteçao co       m condutor adicionalcom condutor adicional: latam",
  "time" : {
    "start" : 1562007292147,
    "stop" : 1562007292575,
    "duration" : 428
  },
  "status" : "failed",
  "severity" : "normal"
}, {
  "uid" : "1e85bae159c939b6",
  "name" : "realizar reserva de veiculo mais barato com 30 dias de reserva com filiais diferentes com hora extra sem equipamentos com proteçao com condutor adicional: latam",
  "time" : {
    "start" : 1562007248046,
    "stop" : 1562007250251,
    "duration" : 2205
  },
  "status" : "passed",
  "severity" : "normal"
}, {
  "uid" : "e705d08ad6f290a8",
  "name" : "realizar cotação de veiculo mais barato com 1 dia de reserva com filiais iguais sem hora extra, com equipamentos com proteçao com condutor adicional: artico_american",
  "time" : {
    "start" : 1561747633384,
    "stop" : 1561747641416,
    "duration" : 8032
  },
  "status" : "failed",
  "severity" : "normal"
}, {
  "uid" : "ed339891b5ff670a",
  "name" : "realizar cotação de veiculo mais barato com 1 dia de reserva com filiais iguais sem hora extra, sem equipamentos com proteçao com condutor adicionalcom condutor adicional: latam",
  "time" : {
    "start" : 1562007232185,
    "stop" : 1562007234590,
    "duration" : 2405
  },
  "status" : "passed",
  "severity" : "normal"
}, {
  "uid" : "188b048b8989f201",
  "name" : "realizar reserva de veiculo mais barato com 1 dia de reserva com filiais diferentes sem hora extra com equipamentos sem proteçao com condutor adicional: latam",
  "time" : {
    "start" : 1562007253411,
    "stop" : 1562007255604,
    "duration" : 2193
  },
  "status" : "passed",
  "severity" : "normal"
}, {
  "uid" : "c42c4c016383fd5f",
  "name" : "realizar reserva de veiculo mais caro com 1 dia de reserva com filiais diferentes com hora extra com equipamentos com proteçao sem condutor adicional: latam",
  "time" : {
    "start" : 1562007315267,
    "stop" : 1562007317406,
    "duration" : 2139
  },
  "status" : "passed",
  "severity" : "normal"
}, {
  "uid" : "74e89f92cdfc9ffe",
  "name" : "realizar reserva de veiculo mais barato com 30 dias de reserva com filiais iguais com hora extra com equipamentos com proteçao com condutor adicional: latam",
  "time" : {
    "start" : 1562007227201,
    "stop" : 1562007229414,
    "duration" : 2213
  },
  "status" : "passed",
  "severity" : "normal"
}, {
  "uid" : "5af0ec40460a42dd",
  "name" : "realizar reserva de veiculo mais caro com 30 dias de reserva com filiais iguais com hora extra com equipamentos sem proteçao com condutor adicional: latam",
  "time" : {
    "start" : 1562007307863,
    "stop" : 1562007310620,
    "duration" : 2757
  },
  "status" : "failed",
  "severity" : "normal"
}, {
  "uid" : "8caf3e8ef1b0b07e",
  "name" : "realizar reserva de veiculo mais caro com 1 dia de reserva com filiais diferentes sem hora extra com equipamentos sem proteçao com condutor adicional: latam",
  "time" : {
    "start" : 1562007302430,
    "stop" : 1562007304570,
    "duration" : 2140
  },
  "status" : "passed",
  "severity" : "normal"
}, {
  "uid" : "a9bb7d0fd79e6d65",
  "name" : "realizar reserva de veiculo mais caro com 1 dia de reserva com filiais iguais com hora extra com equipamentos com proteçao sem condutor adicional: latam",
  "time" : {
    "start" : 1562007314022,
    "stop" : 1562007314469,
    "duration" : 447
  },
  "status" : "failed",
  "severity" : "normal"
}, {
  "uid" : "89e0be0bcf2a4bb4",
  "name" : "realizar cotação de veiculo mais caro com 1 dia de reserva com filiais iguais sem hora extra, com equipamentos sem proteçao co       m condutor adicionalcom condutor adicional: latam",
  "time" : {
    "start" : 1562007300213,
    "stop" : 1562007301974,
    "duration" : 1761
  },
  "status" : "failed",
  "severity" : "normal"
}, {
  "uid" : "62813a8c05cd113b",
  "name" : "realizar cotação de veiculo mais caro com 1 dia de reserva com filiais iguais sem hora extra, com equipamentos com proteçao se       m condutor adicionalsem condutor adicional: Rentcars",
  "time" : {
    "start" : 1562007313280,
    "stop" : 1562007313556,
    "duration" : 276
  },
  "status" : "failed",
  "severity" : "normal"
}, {
  "uid" : "988dacc3e978383c",
  "name" : "realizar reserva de veiculo mais caro com 1 dia de reserva com filiais iguais com hora extra com equipamentos sem proteçao com condutor adicional: latam",
  "time" : {
    "start" : 1562007301976,
    "stop" : 1562007302426,
    "duration" : 450
  },
  "status" : "failed",
  "severity" : "normal"
}, {
  "uid" : "e601b9952e06d93d",
  "name" : "realizar reserva de veiculo mais barato com 1 dia de reserva com filiais iguais com hora extra com equipamentos com proteçao sem condutor adicional: latam",
  "time" : {
    "start" : 1562007267025,
    "stop" : 1562007267434,
    "duration" : 409
  },
  "status" : "failed",
  "severity" : "normal"
}, {
  "uid" : "de322fb01d77af93",
  "name" : "realizar reserva de veiculo mais caro com 30 dias de reserva com filiais iguais com hora extra com equipamentos com proteçao com condutor adicional: latam",
  "time" : {
    "start" : 1562007289649,
    "stop" : 1562007291317,
    "duration" : 1668
  },
  "status" : "failed",
  "severity" : "normal"
}, {
  "uid" : "5be649a48ab9a6b0",
  "name" : "realizar cotação de veiculo mais barato com 1 dia de reserva com filiais iguais sem hora extra, com equipamentos com proteçao se      m condutor adicionalsem condutor adicional: latam",
  "time" : {
    "start" : 1562007264913,
    "stop" : 1562007267016,
    "duration" : 2103
  },
  "status" : "passed",
  "severity" : "normal"
}, {
  "uid" : "8b33cd7e74f7a2d1",
  "name" : "realizar reserva de veiculo mais caro com 1 dia de reserva com filiais diferentes com hora extra com equipamentos com proteçao com condutor adicional: latam",
  "time" : {
    "start" : 1562007287058,
    "stop" : 1562007289227,
    "duration" : 2169
  },
  "status" : "passed",
  "severity" : "normal"
}, {
  "uid" : "4188f4ea237b2e67",
  "name" : "realizar reserva de veiculo mais barato com 1 dia de reserva com filiais diferentes sem hora extra com equipamentos com proteçao sem condutor adicional: latam",
  "time" : {
    "start" : 1562007267436,
    "stop" : 1562007269607,
    "duration" : 2171
  },
  "status" : "passed",
  "severity" : "normal"
}, {
  "uid" : "d33d8c4f6995ea7e",
  "name" : "realizar reserva de veiculo mais caro com 1 dia de reserva com filiais diferentes sem hora extra sem equipamentos com proteçao com condutor adicional: latam",
  "time" : {
    "start" : 1562007292974,
    "stop" : 1562007293411,
    "duration" : 437
  },
  "status" : "failed",
  "severity" : "normal"
}, {
  "uid" : "b2fd8ef363d89265",
  "name" : "realizar reserva de veiculo mais caro com 30 dias de reserva com filiais filiais_diferentes com hora extra com equipamentos com proteçao sem condutor adicional: latam",
  "time" : {
    "start" : 1562007317823,
    "stop" : 1562007318234,
    "duration" : 411
  },
  "status" : "failed",
  "severity" : "normal"
}, {
  "uid" : "135e6bb28b901550",
  "name" : "realizar reserva de veiculo mais barato com 30 dias de reserva com filiais diferentes sem hora extra com equipamentos sem proteçao com condutor adicional: latam",
  "time" : {
    "start" : 1562007260168,
    "stop" : 1562007262275,
    "duration" : 2107
  },
  "status" : "passed",
  "severity" : "normal"
}, {
  "uid" : "638b9a67b0a8e4e",
  "name" : "realizar reserva de veiculo mais barato com 30 dias de reserva com filiais iguais com hora extra com equipamentos com proteçao sem condutor adicional: Rentcars",
  "time" : {
    "start" : 1562007273995,
    "stop" : 1562007274243,
    "duration" : 248
  },
  "status" : "failed",
  "severity" : "normal"
}, {
  "uid" : "243bdc79c1107042",
  "name" : "realizar reserva de veiculo mais caro com 1 dia de reserva com filiais diferentes sem hora extra com equipamentos com proteçao com condutor adicional: latam",
  "time" : {
    "start" : 1562007285243,
    "stop" : 1562007287056,
    "duration" : 1813
  },
  "status" : "failed",
  "severity" : "normal"
}, {
  "uid" : "6301fc4c74afc97c",
  "name" : "realizar reserva de veiculo mais barato com 1 dia de reserva com filiais diferentes com hora extra sem equipamentos com proteçao com condutor adicional: latam",
  "time" : {
    "start" : 1562007238990,
    "stop" : 1562007241511,
    "duration" : 2521
  },
  "status" : "passed",
  "severity" : "normal"
}, {
  "uid" : "b617f6545d949250",
  "name" : "realizar reserva de veiculo mais barato com 30 dias de reserva com filiais iguais com hora extra sem equipamentos com proteçao com condutor adicional: latam",
  "time" : {
    "start" : 1562007243676,
    "stop" : 1562007245877,
    "duration" : 2201
  },
  "status" : "passed",
  "severity" : "normal"
}, {
  "uid" : "f72db6a9dccfd2e8",
  "name" : "realizar reserva de veiculo mais barato com 30 dias de reserva com filiais diferentes sem hora extra com equipamentos com proteçao com condutor adicional: latam",
  "time" : {
    "start" : 1562007229417,
    "stop" : 1562007231359,
    "duration" : 1942
  },
  "status" : "passed",
  "severity" : "normal"
}, {
  "uid" : "1284bfdc75598931",
  "name" : "realizar reserva de veiculo mais barato com 30 dias de reserva com filiais diferentes sem hora extra com equipamentos com proteçao sem condutor adicional: latam",
  "time" : {
    "start" : 1562007277426,
    "stop" : 1562007277849,
    "duration" : 423
  },
  "status" : "failed",
  "severity" : "normal"
}, {
  "uid" : "7e69d7af1a5ca8f1",
  "name" : "realizar reserva de veiculo mais barato com 1 dia de reserva com filiais diferentes com hora extra com equipamentos sem proteçao com condutor adicional: latam",
  "time" : {
    "start" : 1562007255606,
    "stop" : 1562007257696,
    "duration" : 2090
  },
  "status" : "passed",
  "severity" : "normal"
}, {
  "uid" : "c02125cb8a9e03b2",
  "name" : "realizar reserva de veiculo mais barato com 30 dias de reserva com filiais iguais sem hora extra sem equipamentos com proteçao com condutor adicional: latam",
  "time" : {
    "start" : 1562007241513,
    "stop" : 1562007243674,
    "duration" : 2161
  },
  "status" : "passed",
  "severity" : "normal"
}, {
  "uid" : "e5a810e2bc1463a4",
  "name" : "realizar reserva de veiculo mais caro com 30 dias de reserva com filiais iguais sem hora extra com equipamentos com proteçao com condutor adicional: latam",
  "time" : {
    "start" : 1562007289229,
    "stop" : 1562007289647,
    "duration" : 418
  },
  "status" : "failed",
  "severity" : "normal"
}, {
  "uid" : "10b8ddd2f2b0ec6f",
  "name" : "realizar reserva de veiculo mais barato com 30 dias de reserva com filiais diferentes com hora extra: latam",
  "time" : {
    "start" : 1562007231361,
    "stop" : 1562007231776,
    "duration" : 415
  },
  "status" : "failed",
  "severity" : "normal"
}, {
  "uid" : "6877f376657731d1",
  "name" : "realizar reserva de veiculo mais barato com 1 dia de reserva com filiais diferentes com hora extra com equipamentos com proteçao sem condutor adicional: latam",
  "time" : {
    "start" : 1562007269609,
    "stop" : 1562007271860,
    "duration" : 2251
  },
  "status" : "passed",
  "severity" : "normal"
}, {
  "uid" : "d5a64c8d32a5b800",
  "name" : "realizar reserva de veiculo mais caro com 1 dia de reserva com filiais iguais com hora extra sem equipamentos com proteçao com condutor adicional: latam",
  "time" : {
    "start" : 1562007292577,
    "stop" : 1562007292972,
    "duration" : 395
  },
  "status" : "failed",
  "severity" : "normal"
}, {
  "uid" : "8ddded590868d04e",
  "name" : "realizar reserva de veiculo mais caro com 30 dias de reserva com filiais diferentes com hora extra com equipamentos sem proteçao com condutor adicional: latam",
  "time" : {
    "start" : 1562007311070,
    "stop" : 1562007313279,
    "duration" : 2209
  },
  "status" : "passed",
  "severity" : "normal"
}, {
  "uid" : "2fc35b0f789fb8bc",
  "name" : "realizar reserva de veiculo mais barato com 1 dia de reserva com filiais iguais sem hora extra com equipamentos com proteçao com condutor adicional: latam",
  "time" : {
    "start" : 1562007221215,
    "stop" : 1562007223385,
    "duration" : 2170
  },
  "status" : "passed",
  "severity" : "normal"
}, {
  "uid" : "372f310764e8064",
  "name" : "realizar reserva de veiculo mais caro com 30 dias de reserva com filiais diferentes sem hora extra com equipamentos com proteçao com condutor adicional: latam",
  "time" : {
    "start" : 1562007291319,
    "stop" : 1562007291754,
    "duration" : 435
  },
  "status" : "failed",
  "severity" : "normal"
}, {
  "uid" : "795209127f49b60c",
  "name" : "realizar reserva de veiculo mais barato com 30 dias de reserva com filiais iguais com hora extra com equipamentos sem proteçao com condutor adicional: latam",
  "time" : {
    "start" : 1562007259738,
    "stop" : 1562007260167,
    "duration" : 429
  },
  "status" : "failed",
  "severity" : "normal"
}, {
  "uid" : "3a9ebe4435134b84",
  "name" : "realizar reserva de veiculo mais barato com 1 dia de reserva com filiais diferentes sem hora extra com equipamentos com proteçao com condutor adicional: latam",
  "time" : {
    "start" : 1562007223385,
    "stop" : 1562007225741,
    "duration" : 2356
  },
  "status" : "passed",
  "severity" : "normal"
}, {
  "uid" : "bafe920d9d7e088e",
  "name" : "realizar reserva de veiculo mais barato com 30 dias de reserva com filiais diferentes sem hora extra sem equipamentos com proteçao com condutor adicional: latam",
  "time" : {
    "start" : 1562007245879,
    "stop" : 1562007248043,
    "duration" : 2164
  },
  "status" : "passed",
  "severity" : "normal"
}, {
  "uid" : "d29034b2e752f55d",
  "name" : "realizar reserva de veiculo mais caro com 30 dias de reserva com filiais diferentes sem hora extra com equipamentos com proteçao sem condutor adicional: latam",
  "time" : {
    "start" : 1562007325001,
    "stop" : 1562007325650,
    "duration" : 649
  },
  "status" : "failed",
  "severity" : "normal"
}, {
  "uid" : "51c2cc2084d11344",
  "name" : "realizar reserva de veiculo mais caro com 1 dia de reserva com filiais diferentes com hora extra sem equipamentos com proteçao com condutor adicional: latam",
  "time" : {
    "start" : 1562007293415,
    "stop" : 1562007295569,
    "duration" : 2154
  },
  "status" : "passed",
  "severity" : "normal"
}, {
  "uid" : "9d19947fed8ca6a4",
  "name" : "realizar reserva de veiculo mais caro com 1 dia de reserva com filiais diferentes sem hora extra com equipamentos com proteçao sem condutor adicional: latam",
  "time" : {
    "start" : 1562007314472,
    "stop" : 1562007314868,
    "duration" : 396
  },
  "status" : "failed",
  "severity" : "normal"
}, {
  "uid" : "ae66d51caa10218f",
  "name" : "realizar reserva de veiculo mais barato com 30 dias de reserva com filiais iguais sem hora extra com equipamentos sem proteçao com condutor adicional: latam",
  "time" : {
    "start" : 1562007257697,
    "stop" : 1562007259737,
    "duration" : 2040
  },
  "status" : "passed",
  "severity" : "normal"
}, {
  "uid" : "9547cd75e4359b7d",
  "name" : "realizar reserva de veiculo mais barato com 30 dias de reserva com filiais diferentes com hora extra com equipamentos sem proteçao com condutor adicional: latam",
  "time" : {
    "start" : 1562007262276,
    "stop" : 1562007264911,
    "duration" : 2635
  },
  "status" : "passed",
  "severity" : "normal"
}, {
  "uid" : "1eaf8a1eae3abdb0",
  "name" : "realizar reserva de veiculo mais caro com 30 dias de reserva com filiais iguais sem hora extra com equipamentos com proteçao sem condutor adicional: latam",
  "time" : {
    "start" : 1562007317411,
    "stop" : 1562007317820,
    "duration" : 409
  },
  "status" : "failed",
  "severity" : "normal"
}, {
  "uid" : "b6f59528e1fc386a",
  "name" : "realizar reserva de veiculo mais barato com 30 dias de reserva com filiais diferentes com hora extra sem equipamentos com proteçao com condutor adicional: Rentcars",
  "time" : {
    "start" : 1562007250252,
    "stop" : 1562007250492,
    "duration" : 240
  },
  "status" : "failed",
  "severity" : "normal"
}, {
  "uid" : "5728b84e019c8e57",
  "name" : "realizar reserva de veiculo mais barato com 30 dias de reserva com filiais diferentes sem hora extra: latam",
  "time" : {
    "start" : 1562007231778,
    "stop" : 1562007232183,
    "duration" : 405
  },
  "status" : "failed",
  "severity" : "normal"
}, {
  "uid" : "36a5415ca013867e",
  "name" : "realizar cotação de veiculo mais barato com 1 dia de reserva com filiais iguais sem hora extra, com equipamentos com proteçao com condutor adicional: latam",
  "time" : {
    "start" : 1562012327152,
    "stop" : 1562012330413,
    "duration" : 3261
  },
  "status" : "failed",
  "severity" : "normal"
}, {
  "uid" : "bbcf39178dc24478",
  "name" : "realizar reserva de veiculo mais barato com 1 dia de reserva com filiais iguais com hora extra sem equipamentos com proteçao com condutor adicional: latam",
  "time" : {
    "start" : 1562007234591,
    "stop" : 1562007236757,
    "duration" : 2166
  },
  "status" : "passed",
  "severity" : "normal"
}, {
  "uid" : "6beeb98859213719",
  "name" : "realizar reserva de veiculo mais barato com 1 dia de reserva com filiais diferentes sem hora extra sem equipamentos com proteçao com condutor adicional: latam",
  "time" : {
    "start" : 1562007236758,
    "stop" : 1562007238989,
    "duration" : 2231
  },
  "status" : "passed",
  "severity" : "normal"
}, {
  "uid" : "dbf58f2f237ec196",
  "name" : "realizar reserva de veiculo mais caro com 30 dias de reserva com filiais iguais sem hora extra sem equipamentos com proteçao com condutor adicional: latam",
  "time" : {
    "start" : 1562007295571,
    "stop" : 1562007297547,
    "duration" : 1976
  },
  "status" : "passed",
  "severity" : "normal"
}, {
  "uid" : "c562c7f635c53c54",
  "name" : "realizar reserva de veiculo mais caro com 30 dias de reserva com filiais diferentes com hora extra sem equipamentos com proteçao com condutor adicional: latam",
  "time" : {
    "start" : 1562007298464,
    "stop" : 1562007300211,
    "duration" : 1747
  },
  "status" : "failed",
  "severity" : "normal"
}, {
  "uid" : "ad1cdbf13c18be0a",
  "name" : "realizar reserva de veiculo mais barato com 30 dias de reserva com filiais iguais com hora extra com equipamentos com proteçao sem condutor adicional: latam",
  "time" : {
    "start" : 1562007274245,
    "stop" : 1562007277415,
    "duration" : 3170
  },
  "status" : "passed",
  "severity" : "normal"
}, {
  "uid" : "b39ff02defb0e367",
  "name" : "realizar reserva de veiculo mais caro com 1 dia de reserva com filiais iguais com hora extra com equipamentos com proteçao com condutor adicional: latam",
  "time" : {
    "start" : 1562007284854,
    "stop" : 1562007285241,
    "duration" : 387
  },
  "status" : "failed",
  "severity" : "normal"
}, {
  "uid" : "67814ac9856ca614",
  "name" : "realizar cotação de veiculo mais caro com 1 dia de reserva com filiais iguais sem hora extra, com equipamentos com proteçao com condutor adicionalcom condutor adicional: latam",
  "time" : {
    "start" : 1562007284452,
    "stop" : 1562007284853,
    "duration" : 401
  },
  "status" : "failed",
  "severity" : "normal"
}, {
  "uid" : "d1ac73260decacf",
  "name" : "realizar cotação de veiculo mais barato com 1 dia de reserva com filiais iguais sem hora extra, com equipamentos sem proteçao co       m condutor adicionalcom condutor adicional: latam",
  "time" : {
    "start" : 1562007250494,
    "stop" : 1562007250900,
    "duration" : 406
  },
  "status" : "failed",
  "severity" : "normal"
}, {
  "uid" : "d0bef3c268083d7c",
  "name" : "realizar reserva de veiculo mais barato com 30 dias de reserva com filiais diferentes com hora extra com equipamentos com proteçao sem condutor adicional: latam",
  "time" : {
    "start" : 1562007277850,
    "stop" : 1562007280003,
    "duration" : 2153
  },
  "status" : "passed",
  "severity" : "normal"
}, {
  "uid" : "e9e588cbbe7faca1",
  "name" : "realizar reserva de veiculo mais barato com 1 dia de reserva com filiais iguais com hora extra com equipamentos sem proteçao com condutor adicional: latam",
  "time" : {
    "start" : 1562007250901,
    "stop" : 1562007253410,
    "duration" : 2509
  },
  "status" : "passed",
  "severity" : "normal"
}, {
  "uid" : "ff26829fc727d631",
  "name" : "realizar reserva de veiculo mais caro com 30 dias de reserva com filiais diferentes sem hora extra sem equipamentos com proteçao com condutor adicional: latam",
  "time" : {
    "start" : 1562007298046,
    "stop" : 1562007298462,
    "duration" : 416
  },
  "status" : "failed",
  "severity" : "normal"
}, {
  "uid" : "c6faaf6b57aab38f",
  "name" : "realizar reserva de veiculo mais caro com 30 dias de reserva com filiais diferentes sem hora extra com equipamentos sem proteçao com       condutor adicional: latam",
  "time" : {
    "start" : 1562007310623,
    "stop" : 1562007311068,
    "duration" : 445
  },
  "status" : "failed",
  "severity" : "normal"
}, {
  "uid" : "af020ead6dc70f77",
  "name" : "realizar reserva de veiculo mais barato com 30 dias de reserva com filiais iguais sem hora extra com equipamentos com proteçao sem condutor adicional: latam",
  "time" : {
    "start" : 1562007271862,
    "stop" : 1562007273988,
    "duration" : 2126
  },
  "status" : "passed",
  "severity" : "normal"
}, {
  "uid" : "e550a5b7eb62e2ef",
  "name" : "realizar reserva de veiculo mais caro com 30 dias de reserva com filiais iguais com hora extra sem equipamentos com proteçao com condutor adicional: latam",
  "time" : {
    "start" : 1562007297558,
    "stop" : 1562007298045,
    "duration" : 487
  },
  "status" : "failed",
  "severity" : "normal"
}, {
  "uid" : "25434de4ab3ce786",
  "name" : "realizar reserva de veiculo mais caro com 30 dias de reserva com filiais iguais sem hora extra com equipamentos sem proteçao com condutor adicional: latam",
  "time" : {
    "start" : 1562007304572,
    "stop" : 1562007307861,
    "duration" : 3289
  },
  "status" : "passed",
  "severity" : "normal"
} ]