{
  "uid" : "83edc06c07f9ae9e47eb6dd1b683e4e2",
  "children" : [ {
    "name" : "Validar booking de veiculos, validando diversos tipos de veiculos amadeus",
    "children" : [ {
      "name" : "realizar cotação de veiculo mais barato com 1 dia de reserva com filiais iguais sem hora extra, com equipamentos com proteçao com condutor adicional: artico_american",
      "uid" : "e705d08ad6f290a8",
      "parentUid" : "a13158acf19ddbe86edc35152fc872e1",
      "status" : "failed",
      "time" : {
        "start" : 1561747633384,
        "stop" : 1561747641416,
        "duration" : 8032
      },
      "flaky" : true,
      "parameters" : [ ]
    } ],
    "uid" : "a13158acf19ddbe86edc35152fc872e1"
  }, {
    "name" : "Realizar Booking de veiculo selecionado",
    "children" : [ {
      "name" : "realizar reserva de veiculo mais barato com 1 dia de reserva com filiais iguais sem hora extra com equipamentos com proteçao com condutor adicional: latam",
      "uid" : "2fc35b0f789fb8bc",
      "parentUid" : "fef78ee8ca966b9af08959356d89a87c",
      "status" : "passed",
      "time" : {
        "start" : 1562007221215,
        "stop" : 1562007223385,
        "duration" : 2170
      },
      "flaky" : false,
      "parameters" : [ ]
    }, {
      "name" : "realizar reserva de veiculo mais barato com 1 dia de reserva com filiais diferentes sem hora extra com equipamentos com proteçao com condutor adicional: latam",
      "uid" : "3a9ebe4435134b84",
      "parentUid" : "fef78ee8ca966b9af08959356d89a87c",
      "status" : "passed",
      "time" : {
        "start" : 1562007223385,
        "stop" : 1562007225741,
        "duration" : 2356
      },
      "flaky" : false,
      "parameters" : [ ]
    }, {
      "name" : "realizar reserva de veiculo mais barato com 30 dias de reserva com filiais iguais com hora extra com equipamentos com proteçao com condutor adicional: latam",
      "uid" : "74e89f92cdfc9ffe",
      "parentUid" : "fef78ee8ca966b9af08959356d89a87c",
      "status" : "passed",
      "time" : {
        "start" : 1562007227201,
        "stop" : 1562007229414,
        "duration" : 2213
      },
      "flaky" : false,
      "parameters" : [ ]
    }, {
      "name" : "realizar reserva de veiculo mais barato com 30 dias de reserva com filiais diferentes sem hora extra com equipamentos com proteçao com condutor adicional: latam",
      "uid" : "f72db6a9dccfd2e8",
      "parentUid" : "fef78ee8ca966b9af08959356d89a87c",
      "status" : "passed",
      "time" : {
        "start" : 1562007229417,
        "stop" : 1562007231359,
        "duration" : 1942
      },
      "flaky" : false,
      "parameters" : [ ]
    }, {
      "name" : "realizar reserva de veiculo mais barato com 30 dias de reserva com filiais diferentes com hora extra: latam",
      "uid" : "10b8ddd2f2b0ec6f",
      "parentUid" : "fef78ee8ca966b9af08959356d89a87c",
      "status" : "failed",
      "time" : {
        "start" : 1562007231361,
        "stop" : 1562007231776,
        "duration" : 415
      },
      "flaky" : false,
      "parameters" : [ ]
    }, {
      "name" : "realizar reserva de veiculo mais barato com 30 dias de reserva com filiais diferentes sem hora extra: latam",
      "uid" : "5728b84e019c8e57",
      "parentUid" : "fef78ee8ca966b9af08959356d89a87c",
      "status" : "failed",
      "time" : {
        "start" : 1562007231778,
        "stop" : 1562007232183,
        "duration" : 405
      },
      "flaky" : false,
      "parameters" : [ ]
    }, {
      "name" : "realizar cotação de veiculo mais barato com 1 dia de reserva com filiais iguais sem hora extra, sem equipamentos com proteçao com condutor adicionalcom condutor adicional: latam",
      "uid" : "ed339891b5ff670a",
      "parentUid" : "fef78ee8ca966b9af08959356d89a87c",
      "status" : "passed",
      "time" : {
        "start" : 1562007232185,
        "stop" : 1562007234590,
        "duration" : 2405
      },
      "flaky" : false,
      "parameters" : [ ]
    }, {
      "name" : "realizar reserva de veiculo mais barato com 1 dia de reserva com filiais iguais com hora extra sem equipamentos com proteçao com condutor adicional: latam",
      "uid" : "bbcf39178dc24478",
      "parentUid" : "fef78ee8ca966b9af08959356d89a87c",
      "status" : "passed",
      "time" : {
        "start" : 1562007234591,
        "stop" : 1562007236757,
        "duration" : 2166
      },
      "flaky" : false,
      "parameters" : [ ]
    }, {
      "name" : "realizar reserva de veiculo mais barato com 1 dia de reserva com filiais diferentes sem hora extra sem equipamentos com proteçao com condutor adicional: latam",
      "uid" : "6beeb98859213719",
      "parentUid" : "fef78ee8ca966b9af08959356d89a87c",
      "status" : "passed",
      "time" : {
        "start" : 1562007236758,
        "stop" : 1562007238989,
        "duration" : 2231
      },
      "flaky" : false,
      "parameters" : [ ]
    }, {
      "name" : "realizar reserva de veiculo mais barato com 1 dia de reserva com filiais diferentes com hora extra sem equipamentos com proteçao com condutor adicional: latam",
      "uid" : "6301fc4c74afc97c",
      "parentUid" : "fef78ee8ca966b9af08959356d89a87c",
      "status" : "passed",
      "time" : {
        "start" : 1562007238990,
        "stop" : 1562007241511,
        "duration" : 2521
      },
      "flaky" : false,
      "parameters" : [ ]
    }, {
      "name" : "realizar reserva de veiculo mais barato com 30 dias de reserva com filiais iguais sem hora extra sem equipamentos com proteçao com condutor adicional: latam",
      "uid" : "c02125cb8a9e03b2",
      "parentUid" : "fef78ee8ca966b9af08959356d89a87c",
      "status" : "passed",
      "time" : {
        "start" : 1562007241513,
        "stop" : 1562007243674,
        "duration" : 2161
      },
      "flaky" : false,
      "parameters" : [ ]
    }, {
      "name" : "realizar reserva de veiculo mais barato com 30 dias de reserva com filiais iguais com hora extra sem equipamentos com proteçao com condutor adicional: latam",
      "uid" : "b617f6545d949250",
      "parentUid" : "fef78ee8ca966b9af08959356d89a87c",
      "status" : "passed",
      "time" : {
        "start" : 1562007243676,
        "stop" : 1562007245877,
        "duration" : 2201
      },
      "flaky" : false,
      "parameters" : [ ]
    }, {
      "name" : "realizar reserva de veiculo mais barato com 30 dias de reserva com filiais diferentes sem hora extra sem equipamentos com proteçao com condutor adicional: latam",
      "uid" : "bafe920d9d7e088e",
      "parentUid" : "fef78ee8ca966b9af08959356d89a87c",
      "status" : "passed",
      "time" : {
        "start" : 1562007245879,
        "stop" : 1562007248043,
        "duration" : 2164
      },
      "flaky" : false,
      "parameters" : [ ]
    }, {
      "name" : "realizar reserva de veiculo mais barato com 30 dias de reserva com filiais diferentes com hora extra sem equipamentos com proteçao com condutor adicional: latam",
      "uid" : "1e85bae159c939b6",
      "parentUid" : "fef78ee8ca966b9af08959356d89a87c",
      "status" : "passed",
      "time" : {
        "start" : 1562007248046,
        "stop" : 1562007250251,
        "duration" : 2205
      },
      "flaky" : false,
      "parameters" : [ ]
    }, {
      "name" : "realizar reserva de veiculo mais barato com 30 dias de reserva com filiais diferentes com hora extra sem equipamentos com proteçao com condutor adicional: Rentcars",
      "uid" : "b6f59528e1fc386a",
      "parentUid" : "fef78ee8ca966b9af08959356d89a87c",
      "status" : "failed",
      "time" : {
        "start" : 1562007250252,
        "stop" : 1562007250492,
        "duration" : 240
      },
      "flaky" : false,
      "parameters" : [ ]
    }, {
      "name" : "realizar cotação de veiculo mais barato com 1 dia de reserva com filiais iguais sem hora extra, com equipamentos sem proteçao co       m condutor adicionalcom condutor adicional: latam",
      "uid" : "d1ac73260decacf",
      "parentUid" : "fef78ee8ca966b9af08959356d89a87c",
      "status" : "failed",
      "time" : {
        "start" : 1562007250494,
        "stop" : 1562007250900,
        "duration" : 406
      },
      "flaky" : false,
      "parameters" : [ ]
    }, {
      "name" : "realizar reserva de veiculo mais barato com 1 dia de reserva com filiais iguais com hora extra com equipamentos sem proteçao com condutor adicional: latam",
      "uid" : "e9e588cbbe7faca1",
      "parentUid" : "fef78ee8ca966b9af08959356d89a87c",
      "status" : "passed",
      "time" : {
        "start" : 1562007250901,
        "stop" : 1562007253410,
        "duration" : 2509
      },
      "flaky" : false,
      "parameters" : [ ]
    }, {
      "name" : "realizar reserva de veiculo mais barato com 1 dia de reserva com filiais diferentes sem hora extra com equipamentos sem proteçao com condutor adicional: latam",
      "uid" : "188b048b8989f201",
      "parentUid" : "fef78ee8ca966b9af08959356d89a87c",
      "status" : "passed",
      "time" : {
        "start" : 1562007253411,
        "stop" : 1562007255604,
        "duration" : 2193
      },
      "flaky" : false,
      "parameters" : [ ]
    }, {
      "name" : "realizar reserva de veiculo mais barato com 1 dia de reserva com filiais diferentes com hora extra com equipamentos sem proteçao com condutor adicional: latam",
      "uid" : "7e69d7af1a5ca8f1",
      "parentUid" : "fef78ee8ca966b9af08959356d89a87c",
      "status" : "passed",
      "time" : {
        "start" : 1562007255606,
        "stop" : 1562007257696,
        "duration" : 2090
      },
      "flaky" : false,
      "parameters" : [ ]
    }, {
      "name" : "realizar reserva de veiculo mais barato com 30 dias de reserva com filiais iguais sem hora extra com equipamentos sem proteçao com condutor adicional: latam",
      "uid" : "ae66d51caa10218f",
      "parentUid" : "fef78ee8ca966b9af08959356d89a87c",
      "status" : "passed",
      "time" : {
        "start" : 1562007257697,
        "stop" : 1562007259737,
        "duration" : 2040
      },
      "flaky" : false,
      "parameters" : [ ]
    }, {
      "name" : "realizar reserva de veiculo mais barato com 30 dias de reserva com filiais iguais com hora extra com equipamentos sem proteçao com condutor adicional: latam",
      "uid" : "795209127f49b60c",
      "parentUid" : "fef78ee8ca966b9af08959356d89a87c",
      "status" : "failed",
      "time" : {
        "start" : 1562007259738,
        "stop" : 1562007260167,
        "duration" : 429
      },
      "flaky" : false,
      "parameters" : [ ]
    }, {
      "name" : "realizar reserva de veiculo mais barato com 30 dias de reserva com filiais diferentes sem hora extra com equipamentos sem proteçao com condutor adicional: latam",
      "uid" : "135e6bb28b901550",
      "parentUid" : "fef78ee8ca966b9af08959356d89a87c",
      "status" : "passed",
      "time" : {
        "start" : 1562007260168,
        "stop" : 1562007262275,
        "duration" : 2107
      },
      "flaky" : false,
      "parameters" : [ ]
    }, {
      "name" : "realizar reserva de veiculo mais barato com 30 dias de reserva com filiais diferentes com hora extra com equipamentos sem proteçao com condutor adicional: latam",
      "uid" : "9547cd75e4359b7d",
      "parentUid" : "fef78ee8ca966b9af08959356d89a87c",
      "status" : "passed",
      "time" : {
        "start" : 1562007262276,
        "stop" : 1562007264911,
        "duration" : 2635
      },
      "flaky" : false,
      "parameters" : [ ]
    }, {
      "name" : "realizar cotação de veiculo mais barato com 1 dia de reserva com filiais iguais sem hora extra, com equipamentos com proteçao se      m condutor adicionalsem condutor adicional: latam",
      "uid" : "5be649a48ab9a6b0",
      "parentUid" : "fef78ee8ca966b9af08959356d89a87c",
      "status" : "passed",
      "time" : {
        "start" : 1562007264913,
        "stop" : 1562007267016,
        "duration" : 2103
      },
      "flaky" : false,
      "parameters" : [ ]
    }, {
      "name" : "realizar reserva de veiculo mais barato com 1 dia de reserva com filiais iguais com hora extra com equipamentos com proteçao sem condutor adicional: latam",
      "uid" : "e601b9952e06d93d",
      "parentUid" : "fef78ee8ca966b9af08959356d89a87c",
      "status" : "failed",
      "time" : {
        "start" : 1562007267025,
        "stop" : 1562007267434,
        "duration" : 409
      },
      "flaky" : false,
      "parameters" : [ ]
    }, {
      "name" : "realizar reserva de veiculo mais barato com 1 dia de reserva com filiais diferentes sem hora extra com equipamentos com proteçao sem condutor adicional: latam",
      "uid" : "4188f4ea237b2e67",
      "parentUid" : "fef78ee8ca966b9af08959356d89a87c",
      "status" : "passed",
      "time" : {
        "start" : 1562007267436,
        "stop" : 1562007269607,
        "duration" : 2171
      },
      "flaky" : false,
      "parameters" : [ ]
    }, {
      "name" : "realizar reserva de veiculo mais barato com 1 dia de reserva com filiais diferentes com hora extra com equipamentos com proteçao sem condutor adicional: latam",
      "uid" : "6877f376657731d1",
      "parentUid" : "fef78ee8ca966b9af08959356d89a87c",
      "status" : "passed",
      "time" : {
        "start" : 1562007269609,
        "stop" : 1562007271860,
        "duration" : 2251
      },
      "flaky" : false,
      "parameters" : [ ]
    }, {
      "name" : "realizar reserva de veiculo mais barato com 30 dias de reserva com filiais iguais sem hora extra com equipamentos com proteçao sem condutor adicional: latam",
      "uid" : "af020ead6dc70f77",
      "parentUid" : "fef78ee8ca966b9af08959356d89a87c",
      "status" : "passed",
      "time" : {
        "start" : 1562007271862,
        "stop" : 1562007273988,
        "duration" : 2126
      },
      "flaky" : false,
      "parameters" : [ ]
    }, {
      "name" : "realizar reserva de veiculo mais barato com 30 dias de reserva com filiais iguais com hora extra com equipamentos com proteçao sem condutor adicional: Rentcars",
      "uid" : "638b9a67b0a8e4e",
      "parentUid" : "fef78ee8ca966b9af08959356d89a87c",
      "status" : "failed",
      "time" : {
        "start" : 1562007273995,
        "stop" : 1562007274243,
        "duration" : 248
      },
      "flaky" : false,
      "parameters" : [ ]
    }, {
      "name" : "realizar reserva de veiculo mais barato com 30 dias de reserva com filiais iguais com hora extra com equipamentos com proteçao sem condutor adicional: latam",
      "uid" : "ad1cdbf13c18be0a",
      "parentUid" : "fef78ee8ca966b9af08959356d89a87c",
      "status" : "passed",
      "time" : {
        "start" : 1562007274245,
        "stop" : 1562007277415,
        "duration" : 3170
      },
      "flaky" : false,
      "parameters" : [ ]
    }, {
      "name" : "realizar reserva de veiculo mais barato com 30 dias de reserva com filiais diferentes sem hora extra com equipamentos com proteçao sem condutor adicional: latam",
      "uid" : "1284bfdc75598931",
      "parentUid" : "fef78ee8ca966b9af08959356d89a87c",
      "status" : "failed",
      "time" : {
        "start" : 1562007277426,
        "stop" : 1562007277849,
        "duration" : 423
      },
      "flaky" : false,
      "parameters" : [ ]
    }, {
      "name" : "realizar reserva de veiculo mais barato com 30 dias de reserva com filiais diferentes com hora extra com equipamentos com proteçao sem condutor adicional: latam",
      "uid" : "d0bef3c268083d7c",
      "parentUid" : "fef78ee8ca966b9af08959356d89a87c",
      "status" : "passed",
      "time" : {
        "start" : 1562007277850,
        "stop" : 1562007280003,
        "duration" : 2153
      },
      "flaky" : false,
      "parameters" : [ ]
    }, {
      "name" : "realizar cotação de veiculo mais barato com 1 dia de reserva com filiais iguais sem hora extra, sem equipamentos sem proteçao sem condutor adicionalsem condutor adicional: latam",
      "uid" : "bb5777cb407257c2",
      "parentUid" : "fef78ee8ca966b9af08959356d89a87c",
      "status" : "passed",
      "time" : {
        "start" : 1562007282138,
        "stop" : 1562007284443,
        "duration" : 2305
      },
      "flaky" : false,
      "parameters" : [ ]
    }, {
      "name" : "realizar cotação de veiculo mais caro com 1 dia de reserva com filiais iguais sem hora extra, com equipamentos com proteçao com condutor adicionalcom condutor adicional: latam",
      "uid" : "67814ac9856ca614",
      "parentUid" : "fef78ee8ca966b9af08959356d89a87c",
      "status" : "failed",
      "time" : {
        "start" : 1562007284452,
        "stop" : 1562007284853,
        "duration" : 401
      },
      "flaky" : false,
      "parameters" : [ ]
    }, {
      "name" : "realizar reserva de veiculo mais caro com 1 dia de reserva com filiais iguais com hora extra com equipamentos com proteçao com condutor adicional: latam",
      "uid" : "b39ff02defb0e367",
      "parentUid" : "fef78ee8ca966b9af08959356d89a87c",
      "status" : "failed",
      "time" : {
        "start" : 1562007284854,
        "stop" : 1562007285241,
        "duration" : 387
      },
      "flaky" : false,
      "parameters" : [ ]
    }, {
      "name" : "realizar reserva de veiculo mais caro com 1 dia de reserva com filiais diferentes sem hora extra com equipamentos com proteçao com condutor adicional: latam",
      "uid" : "243bdc79c1107042",
      "parentUid" : "fef78ee8ca966b9af08959356d89a87c",
      "status" : "failed",
      "time" : {
        "start" : 1562007285243,
        "stop" : 1562007287056,
        "duration" : 1813
      },
      "flaky" : false,
      "parameters" : [ ]
    }, {
      "name" : "realizar reserva de veiculo mais caro com 1 dia de reserva com filiais diferentes com hora extra com equipamentos com proteçao com condutor adicional: latam",
      "uid" : "8b33cd7e74f7a2d1",
      "parentUid" : "fef78ee8ca966b9af08959356d89a87c",
      "status" : "passed",
      "time" : {
        "start" : 1562007287058,
        "stop" : 1562007289227,
        "duration" : 2169
      },
      "flaky" : false,
      "parameters" : [ ]
    }, {
      "name" : "realizar reserva de veiculo mais caro com 30 dias de reserva com filiais iguais sem hora extra com equipamentos com proteçao com condutor adicional: latam",
      "uid" : "e5a810e2bc1463a4",
      "parentUid" : "fef78ee8ca966b9af08959356d89a87c",
      "status" : "failed",
      "time" : {
        "start" : 1562007289229,
        "stop" : 1562007289647,
        "duration" : 418
      },
      "flaky" : false,
      "parameters" : [ ]
    }, {
      "name" : "realizar reserva de veiculo mais caro com 30 dias de reserva com filiais iguais com hora extra com equipamentos com proteçao com condutor adicional: latam",
      "uid" : "de322fb01d77af93",
      "parentUid" : "fef78ee8ca966b9af08959356d89a87c",
      "status" : "failed",
      "time" : {
        "start" : 1562007289649,
        "stop" : 1562007291317,
        "duration" : 1668
      },
      "flaky" : false,
      "parameters" : [ ]
    }, {
      "name" : "realizar reserva de veiculo mais caro com 30 dias de reserva com filiais diferentes sem hora extra com equipamentos com proteçao com condutor adicional: latam",
      "uid" : "372f310764e8064",
      "parentUid" : "fef78ee8ca966b9af08959356d89a87c",
      "status" : "failed",
      "time" : {
        "start" : 1562007291319,
        "stop" : 1562007291754,
        "duration" : 435
      },
      "flaky" : false,
      "parameters" : [ ]
    }, {
      "name" : "realizar reserva de veiculo mais caro com 30 dias de reserva com filiais diferentes com hora extra com equipamentos com proteçao com condutor adicional: latam",
      "uid" : "34cfaf94a6cdcd54",
      "parentUid" : "fef78ee8ca966b9af08959356d89a87c",
      "status" : "failed",
      "time" : {
        "start" : 1562007291756,
        "stop" : 1562007292146,
        "duration" : 390
      },
      "flaky" : false,
      "parameters" : [ ]
    }, {
      "name" : "realizar cotação de veiculo mais caro com 1 dia de reserva com filiais iguais sem hora extra, sem equipamentos com proteçao co       m condutor adicionalcom condutor adicional: latam",
      "uid" : "63eeb2e7801a311d",
      "parentUid" : "fef78ee8ca966b9af08959356d89a87c",
      "status" : "failed",
      "time" : {
        "start" : 1562007292147,
        "stop" : 1562007292575,
        "duration" : 428
      },
      "flaky" : false,
      "parameters" : [ ]
    }, {
      "name" : "realizar reserva de veiculo mais caro com 1 dia de reserva com filiais iguais com hora extra sem equipamentos com proteçao com condutor adicional: latam",
      "uid" : "d5a64c8d32a5b800",
      "parentUid" : "fef78ee8ca966b9af08959356d89a87c",
      "status" : "failed",
      "time" : {
        "start" : 1562007292577,
        "stop" : 1562007292972,
        "duration" : 395
      },
      "flaky" : false,
      "parameters" : [ ]
    }, {
      "name" : "realizar reserva de veiculo mais caro com 1 dia de reserva com filiais diferentes sem hora extra sem equipamentos com proteçao com condutor adicional: latam",
      "uid" : "d33d8c4f6995ea7e",
      "parentUid" : "fef78ee8ca966b9af08959356d89a87c",
      "status" : "failed",
      "time" : {
        "start" : 1562007292974,
        "stop" : 1562007293411,
        "duration" : 437
      },
      "flaky" : false,
      "parameters" : [ ]
    }, {
      "name" : "realizar reserva de veiculo mais caro com 1 dia de reserva com filiais diferentes com hora extra sem equipamentos com proteçao com condutor adicional: latam",
      "uid" : "51c2cc2084d11344",
      "parentUid" : "fef78ee8ca966b9af08959356d89a87c",
      "status" : "passed",
      "time" : {
        "start" : 1562007293415,
        "stop" : 1562007295569,
        "duration" : 2154
      },
      "flaky" : false,
      "parameters" : [ ]
    }, {
      "name" : "realizar reserva de veiculo mais caro com 30 dias de reserva com filiais iguais sem hora extra sem equipamentos com proteçao com condutor adicional: latam",
      "uid" : "dbf58f2f237ec196",
      "parentUid" : "fef78ee8ca966b9af08959356d89a87c",
      "status" : "passed",
      "time" : {
        "start" : 1562007295571,
        "stop" : 1562007297547,
        "duration" : 1976
      },
      "flaky" : false,
      "parameters" : [ ]
    }, {
      "name" : "realizar reserva de veiculo mais caro com 30 dias de reserva com filiais iguais com hora extra sem equipamentos com proteçao com condutor adicional: latam",
      "uid" : "e550a5b7eb62e2ef",
      "parentUid" : "fef78ee8ca966b9af08959356d89a87c",
      "status" : "failed",
      "time" : {
        "start" : 1562007297558,
        "stop" : 1562007298045,
        "duration" : 487
      },
      "flaky" : false,
      "parameters" : [ ]
    }, {
      "name" : "realizar reserva de veiculo mais caro com 30 dias de reserva com filiais diferentes sem hora extra sem equipamentos com proteçao com condutor adicional: latam",
      "uid" : "ff26829fc727d631",
      "parentUid" : "fef78ee8ca966b9af08959356d89a87c",
      "status" : "failed",
      "time" : {
        "start" : 1562007298046,
        "stop" : 1562007298462,
        "duration" : 416
      },
      "flaky" : false,
      "parameters" : [ ]
    }, {
      "name" : "realizar reserva de veiculo mais caro com 30 dias de reserva com filiais diferentes com hora extra sem equipamentos com proteçao com condutor adicional: latam",
      "uid" : "c562c7f635c53c54",
      "parentUid" : "fef78ee8ca966b9af08959356d89a87c",
      "status" : "failed",
      "time" : {
        "start" : 1562007298464,
        "stop" : 1562007300211,
        "duration" : 1747
      },
      "flaky" : false,
      "parameters" : [ ]
    }, {
      "name" : "realizar cotação de veiculo mais caro com 1 dia de reserva com filiais iguais sem hora extra, com equipamentos sem proteçao co       m condutor adicionalcom condutor adicional: latam",
      "uid" : "89e0be0bcf2a4bb4",
      "parentUid" : "fef78ee8ca966b9af08959356d89a87c",
      "status" : "failed",
      "time" : {
        "start" : 1562007300213,
        "stop" : 1562007301974,
        "duration" : 1761
      },
      "flaky" : false,
      "parameters" : [ ]
    }, {
      "name" : "realizar reserva de veiculo mais caro com 1 dia de reserva com filiais iguais com hora extra com equipamentos sem proteçao com condutor adicional: latam",
      "uid" : "988dacc3e978383c",
      "parentUid" : "fef78ee8ca966b9af08959356d89a87c",
      "status" : "failed",
      "time" : {
        "start" : 1562007301976,
        "stop" : 1562007302426,
        "duration" : 450
      },
      "flaky" : false,
      "parameters" : [ ]
    }, {
      "name" : "realizar reserva de veiculo mais caro com 1 dia de reserva com filiais diferentes sem hora extra com equipamentos sem proteçao com condutor adicional: latam",
      "uid" : "8caf3e8ef1b0b07e",
      "parentUid" : "fef78ee8ca966b9af08959356d89a87c",
      "status" : "passed",
      "time" : {
        "start" : 1562007302430,
        "stop" : 1562007304570,
        "duration" : 2140
      },
      "flaky" : false,
      "parameters" : [ ]
    }, {
      "name" : "realizar reserva de veiculo mais caro com 30 dias de reserva com filiais iguais sem hora extra com equipamentos sem proteçao com condutor adicional: latam",
      "uid" : "25434de4ab3ce786",
      "parentUid" : "fef78ee8ca966b9af08959356d89a87c",
      "status" : "passed",
      "time" : {
        "start" : 1562007304572,
        "stop" : 1562007307861,
        "duration" : 3289
      },
      "flaky" : false,
      "parameters" : [ ]
    }, {
      "name" : "realizar reserva de veiculo mais caro com 30 dias de reserva com filiais iguais com hora extra com equipamentos sem proteçao com condutor adicional: latam",
      "uid" : "5af0ec40460a42dd",
      "parentUid" : "fef78ee8ca966b9af08959356d89a87c",
      "status" : "failed",
      "time" : {
        "start" : 1562007307863,
        "stop" : 1562007310620,
        "duration" : 2757
      },
      "flaky" : false,
      "parameters" : [ ]
    }, {
      "name" : "realizar reserva de veiculo mais caro com 30 dias de reserva com filiais diferentes sem hora extra com equipamentos sem proteçao com       condutor adicional: latam",
      "uid" : "c6faaf6b57aab38f",
      "parentUid" : "fef78ee8ca966b9af08959356d89a87c",
      "status" : "failed",
      "time" : {
        "start" : 1562007310623,
        "stop" : 1562007311068,
        "duration" : 445
      },
      "flaky" : false,
      "parameters" : [ ]
    }, {
      "name" : "realizar reserva de veiculo mais caro com 30 dias de reserva com filiais diferentes com hora extra com equipamentos sem proteçao com condutor adicional: latam",
      "uid" : "8ddded590868d04e",
      "parentUid" : "fef78ee8ca966b9af08959356d89a87c",
      "status" : "passed",
      "time" : {
        "start" : 1562007311070,
        "stop" : 1562007313279,
        "duration" : 2209
      },
      "flaky" : false,
      "parameters" : [ ]
    }, {
      "name" : "realizar cotação de veiculo mais caro com 1 dia de reserva com filiais iguais sem hora extra, com equipamentos com proteçao se       m condutor adicionalsem condutor adicional: Rentcars",
      "uid" : "62813a8c05cd113b",
      "parentUid" : "fef78ee8ca966b9af08959356d89a87c",
      "status" : "failed",
      "time" : {
        "start" : 1562007313280,
        "stop" : 1562007313556,
        "duration" : 276
      },
      "flaky" : false,
      "parameters" : [ ]
    }, {
      "name" : "realizar cotação de veiculo mais caro com 1 dia de reserva com filiais iguais sem hora extra, com equipamentos com proteçao se       m condutor adicionalsem condutor adicional: latam",
      "uid" : "f7a54a46c5f457d3",
      "parentUid" : "fef78ee8ca966b9af08959356d89a87c",
      "status" : "failed",
      "time" : {
        "start" : 1562007313566,
        "stop" : 1562007314020,
        "duration" : 454
      },
      "flaky" : false,
      "parameters" : [ ]
    }, {
      "name" : "realizar reserva de veiculo mais caro com 1 dia de reserva com filiais iguais com hora extra com equipamentos com proteçao sem condutor adicional: latam",
      "uid" : "a9bb7d0fd79e6d65",
      "parentUid" : "fef78ee8ca966b9af08959356d89a87c",
      "status" : "failed",
      "time" : {
        "start" : 1562007314022,
        "stop" : 1562007314469,
        "duration" : 447
      },
      "flaky" : false,
      "parameters" : [ ]
    }, {
      "name" : "realizar reserva de veiculo mais caro com 1 dia de reserva com filiais diferentes sem hora extra com equipamentos com proteçao sem condutor adicional: latam",
      "uid" : "9d19947fed8ca6a4",
      "parentUid" : "fef78ee8ca966b9af08959356d89a87c",
      "status" : "failed",
      "time" : {
        "start" : 1562007314472,
        "stop" : 1562007314868,
        "duration" : 396
      },
      "flaky" : false,
      "parameters" : [ ]
    }, {
      "name" : "realizar reserva de veiculo mais caro com 1 dia de reserva com filiais diferentes com hora extra com equipamentos com proteçao sem condutor adicional: latam",
      "uid" : "c42c4c016383fd5f",
      "parentUid" : "fef78ee8ca966b9af08959356d89a87c",
      "status" : "passed",
      "time" : {
        "start" : 1562007315267,
        "stop" : 1562007317406,
        "duration" : 2139
      },
      "flaky" : false,
      "parameters" : [ ]
    }, {
      "name" : "realizar reserva de veiculo mais caro com 30 dias de reserva com filiais iguais sem hora extra com equipamentos com proteçao sem condutor adicional: latam",
      "uid" : "1eaf8a1eae3abdb0",
      "parentUid" : "fef78ee8ca966b9af08959356d89a87c",
      "status" : "failed",
      "time" : {
        "start" : 1562007317411,
        "stop" : 1562007317820,
        "duration" : 409
      },
      "flaky" : false,
      "parameters" : [ ]
    }, {
      "name" : "realizar reserva de veiculo mais caro com 30 dias de reserva com filiais filiais_diferentes com hora extra com equipamentos com proteçao sem condutor adicional: latam",
      "uid" : "b2fd8ef363d89265",
      "parentUid" : "fef78ee8ca966b9af08959356d89a87c",
      "status" : "failed",
      "time" : {
        "start" : 1562007317823,
        "stop" : 1562007318234,
        "duration" : 411
      },
      "flaky" : false,
      "parameters" : [ ]
    }, {
      "name" : "realizar reserva de veiculo mais caro com 30 dias de reserva com filiais diferentes sem hora extra com equipamentos com proteçao sem condutor adicional: latam",
      "uid" : "d29034b2e752f55d",
      "parentUid" : "fef78ee8ca966b9af08959356d89a87c",
      "status" : "failed",
      "time" : {
        "start" : 1562007325001,
        "stop" : 1562007325650,
        "duration" : 649
      },
      "flaky" : false,
      "parameters" : [ ]
    }, {
      "name" : "realizar cotação de veiculo mais barato com 1 dia de reserva com filiais iguais sem hora extra, com equipamentos com proteçao com condutor adicional: latam",
      "uid" : "36a5415ca013867e",
      "parentUid" : "fef78ee8ca966b9af08959356d89a87c",
      "status" : "failed",
      "time" : {
        "start" : 1562012327152,
        "stop" : 1562012330413,
        "duration" : 3261
      },
      "flaky" : true,
      "parameters" : [ ]
    } ],
    "uid" : "fef78ee8ca966b9af08959356d89a87c"
  } ],
  "name" : "packages"
}