

INFOS VALIDACAO RESPONSE

STATUS CODE OK - 200

INFOS COMMIT

STATUS ESPERADO: Committed.  STATUS RETORNADO: Committed. SUCESSO !!

VALIDAÇÃO XSD #####################

true

VALIDAÇAO SCHEMA XSD OK !!

##################################
